dump.vcd
$date
	Mon Mar 23 22:06:14 2026
$end
$version
	Icarus Verilog
$end
$timescale
	10ps
$end
$scope module Phase2_tb $end
$var wire 32 ! HI [31:0] $end
$var wire 32 " IR [31:0] $end
$var wire 32 # LO [31:0] $end
$var wire 32 $ MAR_val [31:0] $end
$var wire 32 % MDR_val [31:0] $end
$var wire 32 & PC_val [31:0] $end
$var wire 32 ' R0 [31:0] $end
$var wire 32 ( R1 [31:0] $end
$var wire 32 ) R10 [31:0] $end
$var wire 32 * R11 [31:0] $end
$var wire 32 + R12 [31:0] $end
$var wire 32 , R13 [31:0] $end
$var wire 32 - R14 [31:0] $end
$var wire 32 . R15 [31:0] $end
$var wire 32 / R2 [31:0] $end
$var wire 32 0 R3 [31:0] $end
$var wire 32 1 R4 [31:0] $end
$var wire 32 2 R5 [31:0] $end
$var wire 32 3 R6 [31:0] $end
$var wire 32 4 R7 [31:0] $end
$var wire 32 5 R8 [31:0] $end
$var wire 32 6 R9 [31:0] $end
$var wire 64 7 Z [63:0] $end
$var wire 32 8 output_port [31:0] $end
$var wire 1 9 CON_out $end
$var wire 32 : BusMuxOut_out [31:0] $end
$var parameter 5 ; ALU_ADD $end
$var parameter 5 < ALU_AND $end
$var parameter 5 = ALU_OR $end
$var parameter 5 > OP_ADDI $end
$var parameter 5 ? OP_ANDI $end
$var parameter 5 @ OP_BR $end
$var parameter 5 A OP_IN $end
$var parameter 5 B OP_JAL $end
$var parameter 5 C OP_JR $end
$var parameter 5 D OP_LD $end
$var parameter 5 E OP_LDI $end
$var parameter 5 F OP_MFHI $end
$var parameter 5 G OP_MFLO $end
$var parameter 5 H OP_ORI $end
$var parameter 5 I OP_OUT $end
$var parameter 5 J OP_ST $end
$var reg 5 K ALU_op [4:0] $end
$var reg 1 L BAout $end
$var reg 1 M CONin $end
$var reg 1 N Cout $end
$var reg 1 O Gra $end
$var reg 1 P Grb $end
$var reg 1 Q Grc $end
$var reg 1 R HIin $end
$var reg 1 S HIout $end
$var reg 1 T IRin $end
$var reg 1 U InPortout $end
$var reg 1 V IncPC $end
$var reg 1 W LOin $end
$var reg 1 X LOout $end
$var reg 1 Y MARin $end
$var reg 1 Z MDRin $end
$var reg 1 [ MDRout $end
$var reg 1 \ OutPortin $end
$var reg 1 ] PCin $end
$var reg 1 ^ PCout $end
$var reg 1 _ Read $end
$var reg 1 ` Rin $end
$var reg 1 a Rout $end
$var reg 1 b Write $end
$var reg 1 c Yin $end
$var reg 1 d Zhighout $end
$var reg 1 e Zin $end
$var reg 1 f Zlowout $end
$var reg 1 g clear $end
$var reg 1 h clock $end
$var reg 32 i input_port [31:0] $end
$var integer 32 j errors [31:0] $end
$var integer 32 k scratch_mem_addr [31:0] $end
$scope function br_instr $end
$upscope $end
$scope function i_instr $end
$upscope $end
$scope function ir_ra12_dummy $end
$upscope $end
$scope function j_instr $end
$upscope $end
$scope module DUT $end
$var wire 5 l ALU_op [4:0] $end
$var wire 1 L BAout $end
$var wire 32 m BusMuxOut_out [31:0] $end
$var wire 1 M CONin $end
$var wire 1 N Cout $end
$var wire 1 O Gra $end
$var wire 1 P Grb $end
$var wire 1 Q Grc $end
$var wire 1 R HIin $end
$var wire 1 S HIout $end
$var wire 1 T IRin $end
$var wire 32 n InPort_data [31:0] $end
$var wire 1 U InPortout $end
$var wire 1 V IncPC $end
$var wire 1 W LOin $end
$var wire 1 X LOout $end
$var wire 1 Y MARin $end
$var wire 1 Z MDRin $end
$var wire 1 [ MDRout $end
$var wire 1 \ OutPortin $end
$var wire 1 ] PCin $end
$var wire 1 ^ PCout $end
$var wire 1 _ Read $end
$var wire 1 ` Rin $end
$var wire 1 a Rout $end
$var wire 1 b Write $end
$var wire 1 c Yin $end
$var wire 1 d Zhighout $end
$var wire 1 e Zin $end
$var wire 1 f Zlowout $end
$var wire 1 g clear $end
$var wire 1 h clock $end
$var wire 32 o input_port [31:0] $end
$var wire 32 p output_port [31:0] $end
$var wire 64 q Z_in [63:0] $end
$var wire 64 r Z_data [63:0] $end
$var wire 32 s Y_data [31:0] $end
$var wire 16 t R_out_dec [15:0] $end
$var wire 16 u R_in_dec [15:0] $end
$var wire 1 v R0_bus_zero $end
$var wire 32 w PC_inc [31:0] $end
$var wire 32 x PC_data [31:0] $end
$var wire 32 y OutPort_data [31:0] $end
$var wire 32 z Mdatain [31:0] $end
$var wire 32 { MDR_data [31:0] $end
$var wire 32 | MAR_data [31:0] $end
$var wire 32 } LO_data [31:0] $end
$var wire 32 ~ IR_data [31:0] $end
$var wire 32 !" HI_data [31:0] $end
$var wire 32 "" C_sign_extended [31:0] $end
$var wire 1 9 CON_out $end
$var wire 32 #" BusMuxOut [31:0] $end
$var wire 32 $" BusMuxInR0_eff [31:0] $end
$var wire 64 %" ALU_out [63:0] $end
$scope module HI $end
$var wire 1 g clear $end
$var wire 1 h clock $end
$var wire 1 R enable $end
$var wire 32 &" BusMuxOut [31:0] $end
$var wire 32 '" BusMuxIn [31:0] $end
$var parameter 32 (" DATA_WIDTH $end
$var reg 32 )" q [31:0] $end
$upscope $end
$scope module IR $end
$var wire 32 *" BusMuxIn [31:0] $end
$var wire 1 g clear $end
$var wire 1 h clock $end
$var wire 1 T enable $end
$var wire 32 +" BusMuxOut [31:0] $end
$var parameter 32 ," DATA_WIDTH $end
$var reg 32 -" q [31:0] $end
$upscope $end
$scope module LO $end
$var wire 1 g clear $end
$var wire 1 h clock $end
$var wire 1 W enable $end
$var wire 32 ." BusMuxOut [31:0] $end
$var wire 32 /" BusMuxIn [31:0] $end
$var parameter 32 0" DATA_WIDTH $end
$var reg 32 1" q [31:0] $end
$upscope $end
$scope module MAR $end
$var wire 32 2" BusMuxIn [31:0] $end
$var wire 1 g clear $end
$var wire 1 h clock $end
$var wire 1 Y enable $end
$var wire 32 3" BusMuxOut [31:0] $end
$var parameter 32 4" DATA_WIDTH $end
$var reg 32 5" q [31:0] $end
$upscope $end
$scope module OutPort_reg $end
$var wire 1 g clear $end
$var wire 1 h clock $end
$var wire 1 \ enable $end
$var wire 32 6" BusMuxOut [31:0] $end
$var wire 32 7" BusMuxIn [31:0] $end
$var parameter 32 8" DATA_WIDTH $end
$var reg 32 9" q [31:0] $end
$upscope $end
$scope module PC $end
$var wire 32 :" BusMuxIn [31:0] $end
$var wire 1 g clear $end
$var wire 1 h clock $end
$var wire 1 ] enable $end
$var wire 32 ;" BusMuxOut [31:0] $end
$var parameter 32 <" DATA_WIDTH $end
$var reg 32 =" q [31:0] $end
$upscope $end
$scope module R0 $end
$var wire 1 g clear $end
$var wire 1 h clock $end
$var wire 1 >" enable $end
$var wire 32 ?" BusMuxOut [31:0] $end
$var wire 32 @" BusMuxIn [31:0] $end
$var parameter 32 A" DATA_WIDTH $end
$var reg 32 B" q [31:0] $end
$upscope $end
$scope module R1 $end
$var wire 1 g clear $end
$var wire 1 h clock $end
$var wire 1 C" enable $end
$var wire 32 D" BusMuxOut [31:0] $end
$var wire 32 E" BusMuxIn [31:0] $end
$var parameter 32 F" DATA_WIDTH $end
$var reg 32 G" q [31:0] $end
$upscope $end
$scope module R10 $end
$var wire 1 g clear $end
$var wire 1 h clock $end
$var wire 1 H" enable $end
$var wire 32 I" BusMuxOut [31:0] $end
$var wire 32 J" BusMuxIn [31:0] $end
$var parameter 32 K" DATA_WIDTH $end
$var reg 32 L" q [31:0] $end
$upscope $end
$scope module R11 $end
$var wire 1 g clear $end
$var wire 1 h clock $end
$var wire 1 M" enable $end
$var wire 32 N" BusMuxOut [31:0] $end
$var wire 32 O" BusMuxIn [31:0] $end
$var parameter 32 P" DATA_WIDTH $end
$var reg 32 Q" q [31:0] $end
$upscope $end
$scope module R12 $end
$var wire 1 g clear $end
$var wire 1 h clock $end
$var wire 1 R" enable $end
$var wire 32 S" BusMuxOut [31:0] $end
$var wire 32 T" BusMuxIn [31:0] $end
$var parameter 32 U" DATA_WIDTH $end
$var reg 32 V" q [31:0] $end
$upscope $end
$scope module R13 $end
$var wire 1 g clear $end
$var wire 1 h clock $end
$var wire 1 W" enable $end
$var wire 32 X" BusMuxOut [31:0] $end
$var wire 32 Y" BusMuxIn [31:0] $end
$var parameter 32 Z" DATA_WIDTH $end
$var reg 32 [" q [31:0] $end
$upscope $end
$scope module R14 $end
$var wire 1 g clear $end
$var wire 1 h clock $end
$var wire 1 \" enable $end
$var wire 32 ]" BusMuxOut [31:0] $end
$var wire 32 ^" BusMuxIn [31:0] $end
$var parameter 32 _" DATA_WIDTH $end
$var reg 32 `" q [31:0] $end
$upscope $end
$scope module R15 $end
$var wire 1 g clear $end
$var wire 1 h clock $end
$var wire 1 a" enable $end
$var wire 32 b" BusMuxOut [31:0] $end
$var wire 32 c" BusMuxIn [31:0] $end
$var parameter 32 d" DATA_WIDTH $end
$var reg 32 e" q [31:0] $end
$upscope $end
$scope module R2 $end
$var wire 1 g clear $end
$var wire 1 h clock $end
$var wire 1 f" enable $end
$var wire 32 g" BusMuxOut [31:0] $end
$var wire 32 h" BusMuxIn [31:0] $end
$var parameter 32 i" DATA_WIDTH $end
$var reg 32 j" q [31:0] $end
$upscope $end
$scope module R3 $end
$var wire 1 g clear $end
$var wire 1 h clock $end
$var wire 1 k" enable $end
$var wire 32 l" BusMuxOut [31:0] $end
$var wire 32 m" BusMuxIn [31:0] $end
$var parameter 32 n" DATA_WIDTH $end
$var reg 32 o" q [31:0] $end
$upscope $end
$scope module R4 $end
$var wire 1 g clear $end
$var wire 1 h clock $end
$var wire 1 p" enable $end
$var wire 32 q" BusMuxOut [31:0] $end
$var wire 32 r" BusMuxIn [31:0] $end
$var parameter 32 s" DATA_WIDTH $end
$var reg 32 t" q [31:0] $end
$upscope $end
$scope module R5 $end
$var wire 1 g clear $end
$var wire 1 h clock $end
$var wire 1 u" enable $end
$var wire 32 v" BusMuxOut [31:0] $end
$var wire 32 w" BusMuxIn [31:0] $end
$var parameter 32 x" DATA_WIDTH $end
$var reg 32 y" q [31:0] $end
$upscope $end
$scope module R6 $end
$var wire 1 g clear $end
$var wire 1 h clock $end
$var wire 1 z" enable $end
$var wire 32 {" BusMuxOut [31:0] $end
$var wire 32 |" BusMuxIn [31:0] $end
$var parameter 32 }" DATA_WIDTH $end
$var reg 32 ~" q [31:0] $end
$upscope $end
$scope module R7 $end
$var wire 1 g clear $end
$var wire 1 h clock $end
$var wire 1 !# enable $end
$var wire 32 "# BusMuxOut [31:0] $end
$var wire 32 ## BusMuxIn [31:0] $end
$var parameter 32 $# DATA_WIDTH $end
$var reg 32 %# q [31:0] $end
$upscope $end
$scope module R8 $end
$var wire 1 g clear $end
$var wire 1 h clock $end
$var wire 1 &# enable $end
$var wire 32 '# BusMuxOut [31:0] $end
$var wire 32 (# BusMuxIn [31:0] $end
$var parameter 32 )# DATA_WIDTH $end
$var reg 32 *# q [31:0] $end
$upscope $end
$scope module R9 $end
$var wire 1 g clear $end
$var wire 1 h clock $end
$var wire 1 +# enable $end
$var wire 32 ,# BusMuxOut [31:0] $end
$var wire 32 -# BusMuxIn [31:0] $end
$var parameter 32 .# DATA_WIDTH $end
$var reg 32 /# q [31:0] $end
$upscope $end
$scope module Y $end
$var wire 1 g clear $end
$var wire 1 h clock $end
$var wire 1 c enable $end
$var wire 32 0# BusMuxOut [31:0] $end
$var wire 32 1# BusMuxIn [31:0] $end
$var parameter 32 2# DATA_WIDTH $end
$var reg 32 3# q [31:0] $end
$upscope $end
$scope module Z $end
$var wire 64 4# BusMuxOut [63:0] $end
$var wire 1 g clear $end
$var wire 1 h clock $end
$var wire 1 e enable $end
$var wire 64 5# BusMuxIn [63:0] $end
$var parameter 32 6# DATA_WIDTH $end
$var reg 64 7# q [63:0] $end
$upscope $end
$scope module alu_inst $end
$var wire 32 8# A [31:0] $end
$var wire 5 9# ALU_op [4:0] $end
$var wire 32 :# add_B [31:0] $end
$var wire 1 ;# sub_ctrl $end
$var wire 3 <# shift_sel [2:0] $end
$var wire 32 =# shift_res [31:0] $end
$var wire 64 ># mul_res [63:0] $end
$var wire 64 ?# div_res [63:0] $end
$var wire 32 @# add_sub_res [31:0] $end
$var wire 32 A# add_A [31:0] $end
$var wire 32 B# B [31:0] $end
$var parameter 5 C# ALU_ADD $end
$var parameter 5 D# ALU_AND $end
$var parameter 5 E# ALU_DIV $end
$var parameter 5 F# ALU_MUL $end
$var parameter 5 G# ALU_NEG $end
$var parameter 5 H# ALU_NOT $end
$var parameter 5 I# ALU_OR $end
$var parameter 5 J# ALU_ROL $end
$var parameter 5 K# ALU_ROR $end
$var parameter 5 L# ALU_SHL $end
$var parameter 5 M# ALU_SHR $end
$var parameter 5 N# ALU_SHRA $end
$var parameter 5 O# ALU_SUB $end
$var reg 64 P# C [63:0] $end
$scope module add_unit $end
$var wire 32 Q# A [31:0] $end
$var wire 32 R# B [31:0] $end
$var wire 1 ;# sub_ctrl $end
$var wire 32 S# B_complement [31:0] $end
$var reg 32 T# Result [31:0] $end
$var reg 33 U# carry [32:0] $end
$var integer 32 V# i [31:0] $end
$upscope $end
$scope module div_unit $end
$var wire 32 W# dividend [31:0] $end
$var wire 64 X# result [63:0] $end
$var wire 32 Y# divisor [31:0] $end
$var reg 32 Z# A [31:0] $end
$var reg 32 [# M [31:0] $end
$var reg 32 \# Q [31:0] $end
$var integer 32 ]# i [31:0] $end
$upscope $end
$scope module mul_unit $end
$var wire 32 ^# multiplicand [31:0] $end
$var wire 64 _# result [63:0] $end
$var wire 32 `# multiplier [31:0] $end
$scope function booth_mul_radix4 $end
$upscope $end
$upscope $end
$scope module shift_unit $end
$var wire 32 a# data_in [31:0] $end
$var wire 3 b# op_sel [2:0] $end
$var wire 5 c# shift_count [4:0] $end
$var reg 32 d# data_out [31:0] $end
$upscope $end
$upscope $end
$scope module bus_inst $end
$var wire 32 e# BusMuxInHI [31:0] $end
$var wire 32 f# BusMuxInInPort [31:0] $end
$var wire 32 g# BusMuxInLO [31:0] $end
$var wire 32 h# BusMuxInPC [31:0] $end
$var wire 32 i# BusMuxInR0 [31:0] $end
$var wire 32 j# BusMuxInR1 [31:0] $end
$var wire 32 k# BusMuxInR10 [31:0] $end
$var wire 32 l# BusMuxInR11 [31:0] $end
$var wire 32 m# BusMuxInR12 [31:0] $end
$var wire 32 n# BusMuxInR13 [31:0] $end
$var wire 32 o# BusMuxInR14 [31:0] $end
$var wire 32 p# BusMuxInR15 [31:0] $end
$var wire 32 q# BusMuxInR2 [31:0] $end
$var wire 32 r# BusMuxInR3 [31:0] $end
$var wire 32 s# BusMuxInR4 [31:0] $end
$var wire 32 t# BusMuxInR5 [31:0] $end
$var wire 32 u# BusMuxInR6 [31:0] $end
$var wire 32 v# BusMuxInR7 [31:0] $end
$var wire 32 w# BusMuxInR8 [31:0] $end
$var wire 32 x# BusMuxInR9 [31:0] $end
$var wire 32 y# BusMuxInZhigh [31:0] $end
$var wire 32 z# BusMuxInZlow [31:0] $end
$var wire 1 N Cout $end
$var wire 1 S HIout $end
$var wire 1 U InPortout $end
$var wire 1 X LOout $end
$var wire 1 [ MDRout $end
$var wire 1 ^ PCout $end
$var wire 1 {# R0out $end
$var wire 1 |# R10out $end
$var wire 1 }# R11out $end
$var wire 1 ~# R12out $end
$var wire 1 !$ R13out $end
$var wire 1 "$ R14out $end
$var wire 1 #$ R15out $end
$var wire 1 $$ R1out $end
$var wire 1 %$ R2out $end
$var wire 1 &$ R3out $end
$var wire 1 '$ R4out $end
$var wire 1 ($ R5out $end
$var wire 1 )$ R6out $end
$var wire 1 *$ R7out $end
$var wire 1 +$ R8out $end
$var wire 1 ,$ R9out $end
$var wire 1 d Zhighout $end
$var wire 1 f Zlowout $end
$var wire 5 -$ SelectSignal [4:0] $end
$var wire 32 .$ C_sign_extended [31:0] $end
$var wire 32 /$ BusMuxInMDR [31:0] $end
$var reg 32 0$ BusMuxOut [31:0] $end
$upscope $end
$scope module con_ff_inst $end
$var wire 1 M CONin $end
$var wire 32 1$ bus_data [31:0] $end
$var wire 1 g clear $end
$var wire 1 h clock $end
$var wire 2 2$ cond [1:0] $end
$var wire 1 3$ cond_met $end
$var reg 1 9 CON $end
$upscope $end
$scope module mdr $end
$var wire 32 4$ BusMuxOut [31:0] $end
$var wire 1 Z MDRin $end
$var wire 1 _ Read $end
$var wire 1 g clear $end
$var wire 1 h clock $end
$var wire 32 5$ Mdatain [31:0] $end
$var wire 32 6$ MDMuxOut [31:0] $end
$var wire 32 7$ BusMuxInMDR [31:0] $end
$scope module mdr_reg $end
$var wire 32 8$ BusMuxOut [31:0] $end
$var wire 1 g clear $end
$var wire 1 h clock $end
$var wire 1 Z enable $end
$var wire 32 9$ BusMuxIn [31:0] $end
$var parameter 32 :$ DATA_WIDTH $end
$var reg 32 ;$ q [31:0] $end
$upscope $end
$upscope $end
$scope module memory_unit $end
$var wire 9 <$ address [8:0] $end
$var wire 1 h clk $end
$var wire 32 =$ data_in [31:0] $end
$var wire 1 _ read $end
$var wire 1 b write $end
$var wire 32 >$ data_out [31:0] $end
$scope begin $unm_blk_4 $end
$var integer 32 ?$ i [31:0] $end
$upscope $end
$upscope $end
$scope module reg_decode $end
$var wire 1 L BAout $end
$var wire 1 O Gra $end
$var wire 1 P Grb $end
$var wire 1 Q Grc $end
$var wire 32 @$ IR [31:0] $end
$var wire 1 v R0_bus_zero $end
$var wire 1 ` Rin $end
$var wire 1 a Rout $end
$var wire 1 A$ sel $end
$var wire 4 B$ reg_field [3:0] $end
$var wire 16 C$ R_out [15:0] $end
$var wire 16 D$ R_in [15:0] $end
$var wire 32 E$ C_sign_extended [31:0] $end
$scope begin g_dec[0] $end
$var parameter 2 F$ k $end
$upscope $end
$scope begin g_dec[1] $end
$var parameter 2 G$ k $end
$upscope $end
$scope begin g_dec[2] $end
$var parameter 3 H$ k $end
$upscope $end
$scope begin g_dec[3] $end
$var parameter 3 I$ k $end
$upscope $end
$scope begin g_dec[4] $end
$var parameter 4 J$ k $end
$upscope $end
$scope begin g_dec[5] $end
$var parameter 4 K$ k $end
$upscope $end
$scope begin g_dec[6] $end
$var parameter 4 L$ k $end
$upscope $end
$scope begin g_dec[7] $end
$var parameter 4 M$ k $end
$upscope $end
$scope begin g_dec[8] $end
$var parameter 5 N$ k $end
$upscope $end
$scope begin g_dec[9] $end
$var parameter 5 O$ k $end
$upscope $end
$scope begin g_dec[10] $end
$var parameter 5 P$ k $end
$upscope $end
$scope begin g_dec[11] $end
$var parameter 5 Q$ k $end
$upscope $end
$scope begin g_dec[12] $end
$var parameter 5 R$ k $end
$upscope $end
$scope begin g_dec[13] $end
$var parameter 5 S$ k $end
$upscope $end
$scope begin g_dec[14] $end
$var parameter 5 T$ k $end
$upscope $end
$scope begin g_dec[15] $end
$var parameter 5 U$ k $end
$upscope $end
$upscope $end
$upscope $end
$scope task clear_controls $end
$upscope $end
$scope task expect32 $end
$var reg 32 V$ actual [31:0] $end
$var reg 32 W$ expected [31:0] $end
$var reg 256 X$ label [255:0] $end
$upscope $end
$scope task expect32_mem $end
$var reg 9 Y$ addr [8:0] $end
$var reg 32 Z$ expected [31:0] $end
$var reg 256 [$ label [255:0] $end
$upscope $end
$scope task load_gpr_from_mem $end
$var reg 9 \$ a [8:0] $end
$var reg 4 ]$ ra_idx [3:0] $end
$var reg 32 ^$ value [31:0] $end
$upscope $end
$scope task load_hi_from_mem $end
$var reg 9 _$ a [8:0] $end
$var reg 32 `$ value [31:0] $end
$upscope $end
$scope task load_lo_from_mem $end
$var reg 9 a$ a [8:0] $end
$var reg 32 b$ value [31:0] $end
$upscope $end
$scope task run_branch_T3_T6 $end
$var reg 1 c$ take_branch $end
$upscope $end
$scope task run_fetch_T0_T2 $end
$var reg 32 d$ pc_word_addr [31:0] $end
$upscope $end
$scope task run_immed_T3_T5 $end
$var reg 5 e$ alu_sel [4:0] $end
$upscope $end
$scope task run_in_T3 $end
$upscope $end
$scope task run_jal_T3_T4 $end
$upscope $end
$scope task run_jr_T3 $end
$upscope $end
$scope task run_ld_T3_T7 $end
$upscope $end
$scope task run_ldi_T3_T5 $end
$upscope $end
$scope task run_mfhi_T3 $end
$upscope $end
$scope task run_mflo_T3 $end
$upscope $end
$scope task run_out_T3 $end
$upscope $end
$scope task run_st_T6_T7 $end
$upscope $end
$scope task run_st_ea_T3_T5 $end
$upscope $end
$upscope $end
$enddefinitions $end
$comment Show the parameter values. $end
$dumpall
b1111 U$
b1110 T$
b1101 S$
b1100 R$
b1011 Q$
b1010 P$
b1001 O$
b1000 N$
b111 M$
b110 L$
b101 K$
b100 J$
b11 I$
b10 H$
b1 G$
b0 F$
b100000 :$
b1 O#
b101 N#
b100 M#
b110 L#
b111 K#
b1000 J#
b1010 I#
b1100 H#
b1011 G#
b10 F#
b11 E#
b1001 D#
b0 C#
b1000000 6#
b100000 2#
b100000 .#
b100000 )#
b100000 $#
b100000 }"
b100000 x"
b100000 s"
b100000 n"
b100000 i"
b100000 d"
b100000 _"
b100000 Z"
b100000 U"
b100000 P"
b100000 K"
b100000 F"
b100000 A"
b100000 <"
b100000 8"
b100000 4"
b100000 0"
b100000 ,"
b100000 ("
b10010 J
b10111 I
b1011 H
b11001 G
b11000 F
b10001 E
b10000 D
b10100 C
b10011 B
b10110 A
b10101 @
b1010 ?
b1001 >
b1010 =
b1001 <
b0 ;
$end
#0
$dumpvars
bx e$
bx d$
xc$
bx b$
bx a$
bx `$
bx _$
bx ^$
bx ]$
bx \$
bx [$
bx Z$
bx Y$
bx X$
bx W$
bx V$
bx E$
b0 D$
b0 C$
bx B$
0A$
bx @$
b1000000000 ?$
b0 >$
bx =$
bx <$
bx ;$
bx 9$
bx 8$
bx 7$
bx 6$
b0 5$
bx 4$
x3$
bx 2$
bx 1$
bx 0$
bx /$
bx .$
b0 -$
0,$
0+$
0*$
0)$
0($
0'$
0&$
0%$
0$$
0#$
0"$
0!$
0~#
0}#
0|#
0{#
bx z#
bx y#
bx x#
bx w#
bx v#
bx u#
bx t#
bx s#
bx r#
bx q#
bx p#
bx o#
bx n#
bx m#
bx l#
bx k#
bx j#
bx i#
bx h#
bx g#
b0 f#
bx e#
bx d#
bx c#
b0 b#
bx a#
bx `#
b0 _#
bx ^#
b100000 ]#
b11111111111111111111111111111111 \#
bx [#
bx Z#
bx Y#
bx11111111111111111111111111111111 X#
bx W#
b100000 V#
bx0 U#
bx T#
bx S#
bx R#
bx Q#
b0xxxxxxxxxxxxxxxxxxxxxxxxxxxxxxxx P#
bx B#
bx A#
bx @#
bx11111111111111111111111111111111 ?#
b0 >#
bx =#
b0 <#
0;#
bx :#
b0 9#
bx 8#
bx 7#
bx 5#
b0xxxxxxxxxxxxxxxxxxxxxxxxxxxxxxxx 4#
bx 3#
bx 1#
bx 0#
bx /#
bx -#
bx ,#
0+#
bx *#
bx (#
bx '#
0&#
bx %#
bx ##
bx "#
0!#
bx ~"
bx |"
bx {"
0z"
bx y"
bx w"
bx v"
0u"
bx t"
bx r"
bx q"
0p"
bx o"
bx m"
bx l"
0k"
bx j"
bx h"
bx g"
0f"
bx e"
bx c"
bx b"
0a"
bx `"
bx ^"
bx ]"
0\"
bx ["
bx Y"
bx X"
0W"
bx V"
bx T"
bx S"
0R"
bx Q"
bx O"
bx N"
0M"
bx L"
bx J"
bx I"
0H"
bx G"
bx E"
bx D"
0C"
bx B"
bx @"
bx ?"
0>"
bx ="
bx ;"
bx :"
bx 9"
bx 7"
bx 6"
bx 5"
bx 3"
bx 2"
bx 1"
bx /"
bx ."
bx -"
bx +"
bx *"
bx )"
bx '"
bx &"
b0xxxxxxxxxxxxxxxxxxxxxxxxxxxxxxxx %"
bx $"
bx #"
bx ""
bx !"
bx ~
bx }
bx |
bx {
b0 z
bx y
bx x
bx w
0v
b0 u
b0 t
bx s
bx r
b0xxxxxxxxxxxxxxxxxxxxxxxxxxxxxxxx q
bx p
b0 o
b0 n
bx m
b0 l
b1 k
b0 j
b0 i
0h
xg
0f
0e
0d
0c
0b
0a
0`
0_
0^
0]
0\
0[
0Z
0Y
0X
0W
0V
0U
0T
0S
0R
0Q
0P
0O
0N
0M
0L
b0 K
bx :
x9
bx 8
bx 7
bx 6
bx 5
bx 4
bx 3
bx 2
bx 1
bx 0
bx /
bx .
bx -
bx ,
bx +
bx *
bx )
bx (
bx '
bx &
bx %
bx $
bx #
bx "
bx !
$end
#1000
1h
#2000
0h
#3000
1g
1h
#4000
0h
#5000
b0 q
b0 4#
b0 %"
b0 P#
b0 =#
b0 d#
b0 @#
b0 T#
b0 B$
13$
b0 6$
b0 8$
b0 c#
b0 S#
b0 [#
b100000 V#
b0 U#
b0 :#
b0 R#
b0 :
b0 m
b0 #"
b0 &"
b0 +"
b0 ."
b0 3"
b0 6"
b0 ;"
b0 ?"
b0 D"
b0 I"
b0 N"
b0 S"
b0 X"
b0 ]"
b0 b"
b0 g"
b0 l"
b0 q"
b0 v"
b0 {"
b0 "#
b0 '#
b0 ,#
b0 0#
b0 B#
b0 Y#
b0 `#
b0 0$
b0 1$
b0 4$
b0 $"
b0 i#
b0 z#
b0 y#
b0 A#
b0 Q#
b100000 ]#
b11111111111111111111111111111111 Z#
b1111111111111111111111111111111111111111111111111111111111111111 ?#
b1111111111111111111111111111111111111111111111111111111111111111 X#
b11111111111111111111111111111111 \#
b0 <$
b0 ""
b0 .$
b0 E$
b0 2$
b0 '
b0 @"
b0 B"
b0 (
b0 E"
b0 G"
b0 j#
b0 /
b0 h"
b0 j"
b0 q#
b0 0
b0 m"
b0 o"
b0 r#
b0 1
b0 r"
b0 t"
b0 s#
b0 2
b0 w"
b0 y"
b0 t#
b0 3
b0 |"
b0 ~"
b0 u#
b0 4
b0 ##
b0 %#
b0 v#
b0 5
b0 (#
b0 *#
b0 w#
b0 6
b0 -#
b0 /#
b0 x#
b0 )
b0 J"
b0 L"
b0 k#
b0 *
b0 O"
b0 Q"
b0 l#
b0 +
b0 T"
b0 V"
b0 m#
b0 ,
b0 Y"
b0 ["
b0 n#
b0 -
b0 ^"
b0 `"
b0 o#
b0 .
b0 c"
b0 e"
b0 p#
b0 7
b0 r
b0 5#
b0 7#
b0 s
b0 1#
b0 3#
b0 8#
b0 W#
b0 ^#
b0 a#
b1 w
b0 &
b0 x
b0 :"
b0 h#
b0 ="
b0 !
b0 !"
b0 '"
b0 )"
b0 e#
b0 #
b0 }
b0 /"
b0 1"
b0 g#
b0 $
b0 |
b0 2"
b0 5"
b0 "
b0 ~
b0 *"
b0 @$
b0 -"
b0 %
b0 {
b0 /$
b0 7$
b0 9$
b0 ;$
b0 =$
09
b0 8
b0 p
b0 y
b0 7"
b0 9"
1h
#6000
0h
#7000
b0 d$
0g
1h
#8000
b10100 -$
b1 q
b1 4#
1e
1V
1Y
1^
b0 x
b0 :"
b0 h#
0h
#9000
b1 z#
b1 7
b1 r
b1 5#
b1 7#
1h
#9100
b0 -$
b0 q
b0 4#
0Y
0e
0V
0^
b0 x
b0 :"
b0 h#
#10000
b1 q
b1 4#
b1 %"
b1 P#
b1 @#
b1 T#
b100000 V#
03$
b1 c#
b1 S#
b100000 ]#
b0 Z#
b1 [#
b0 ?#
b0 X#
b0 \#
b1 :#
b1 R#
b1 :
b1 m
b1 #"
b1 &"
b1 +"
b1 ."
b1 3"
b1 6"
b1 ;"
b1 ?"
b1 D"
b1 I"
b1 N"
b1 S"
b1 X"
b1 ]"
b1 b"
b1 g"
b1 l"
b1 q"
b1 v"
b1 {"
b1 "#
b1 '#
b1 ,#
b1 0#
b1 B#
b1 Y#
b1 `#
b1 0$
b1 1$
b1 4$
b10011 -$
b10000011100000000000000001100101 6$
b10000011100000000000000001100101 8$
b10000011100000000000000001100101 z
b10000011100000000000000001100101 5$
b10000011100000000000000001100101 >$
1Z
1_
1]
1f
0h
#11000
b10000011100000000000000001100101 %
b10000011100000000000000001100101 {
b10000011100000000000000001100101 /$
b10000011100000000000000001100101 7$
b10000011100000000000000001100101 9$
b10000011100000000000000001100101 ;$
b10000011100000000000000001100101 =$
b10 w
b1 &
b1 x
b1 :"
b1 h#
b1 ="
1h
#11100
b0 q
b0 4#
b0 %"
b0 P#
b0 @#
b0 T#
b100000 V#
13$
b0 c#
b0 S#
b11111111111111111111111111111111 \#
b1111111111111111111111111111111111111111111111111111111111111111 ?#
b1111111111111111111111111111111111111111111111111111111111111111 X#
b11111111111111111111111111111111 Z#
b0 [#
b0 :#
b0 R#
b0 :
b0 m
b0 #"
b0 &"
b0 +"
b0 ."
b0 3"
b0 6"
b0 ;"
b0 ?"
b0 D"
b0 I"
b0 N"
b0 S"
b0 X"
b0 ]"
b0 b"
b0 g"
b0 l"
b0 q"
b0 v"
b0 {"
b0 "#
b0 '#
b0 ,#
b0 0#
b0 B#
b0 Y#
b0 `#
b0 0$
b0 1$
b0 4$
b0 -$
b0 6$
b0 8$
b0 z
b0 5$
b0 >$
0f
0_
0Z
0]
