dump.vcd
$date
	Mon Mar  2 21:56:36 2026
$end
$version
	Icarus Verilog
$end
$timescale
	10ps
$end
$scope module Phase1_tb $end
$var wire 32 ! BusMuxOut [31:0] $end
$var wire 32 " HI [31:0] $end
$var wire 32 # IR [31:0] $end
$var wire 32 $ LO [31:0] $end
$var wire 32 % R0 [31:0] $end
$var wire 32 & R1 [31:0] $end
$var wire 32 ' R10 [31:0] $end
$var wire 32 ( R11 [31:0] $end
$var wire 32 ) R12 [31:0] $end
$var wire 32 * R13 [31:0] $end
$var wire 32 + R14 [31:0] $end
$var wire 32 , R15 [31:0] $end
$var wire 32 - R2 [31:0] $end
$var wire 32 . R3 [31:0] $end
$var wire 32 / R4 [31:0] $end
$var wire 32 0 R5 [31:0] $end
$var wire 32 1 R6 [31:0] $end
$var wire 32 2 R7 [31:0] $end
$var wire 32 3 R8 [31:0] $end
$var wire 32 4 R9 [31:0] $end
$var wire 64 5 Z [63:0] $end
$var wire 32 6 BusMuxOut_out [31:0] $end
$var reg 5 7 ALU_op [4:0] $end
$var reg 1 8 Cout $end
$var reg 1 9 HIin $end
$var reg 1 : HIout $end
$var reg 1 ; IRin $end
$var reg 1 < InPortout $end
$var reg 1 = IncPC $end
$var reg 1 > LOin $end
$var reg 1 ? LOout $end
$var reg 1 @ MARin $end
$var reg 1 A MDRin $end
$var reg 1 B MDRout $end
$var reg 32 C Mdatain [31:0] $end
$var reg 1 D PCin $end
$var reg 1 E PCout $end
$var reg 1 F R0in $end
$var reg 1 G R0out $end
$var reg 1 H R10in $end
$var reg 1 I R10out $end
$var reg 1 J R11in $end
$var reg 1 K R11out $end
$var reg 1 L R12in $end
$var reg 1 M R12out $end
$var reg 1 N R13in $end
$var reg 1 O R13out $end
$var reg 1 P R14in $end
$var reg 1 Q R14out $end
$var reg 1 R R15in $end
$var reg 1 S R15out $end
$var reg 1 T R1in $end
$var reg 1 U R1out $end
$var reg 1 V R2in $end
$var reg 1 W R2out $end
$var reg 1 X R3in $end
$var reg 1 Y R3out $end
$var reg 1 Z R4in $end
$var reg 1 [ R4out $end
$var reg 1 \ R5in $end
$var reg 1 ] R5out $end
$var reg 1 ^ R6in $end
$var reg 1 _ R6out $end
$var reg 1 ` R7in $end
$var reg 1 a R7out $end
$var reg 1 b R8in $end
$var reg 1 c R8out $end
$var reg 1 d R9in $end
$var reg 1 e R9out $end
$var reg 1 f Read $end
$var reg 1 g Yin $end
$var reg 1 h Zhighout $end
$var reg 1 i Zin $end
$var reg 1 j Zlowout $end
$var reg 1 k clear $end
$var reg 1 l clock $end
$var integer 32 m errors [31:0] $end
$scope function instr_rr $end
$upscope $end
$scope function instr_rrr $end
$upscope $end
$scope module DUT $end
$var wire 5 n ALU_op [4:0] $end
$var wire 32 o BusMuxOut_out [31:0] $end
$var wire 32 p C_sign_extended [31:0] $end
$var wire 1 8 Cout $end
$var wire 1 9 HIin $end
$var wire 1 : HIout $end
$var wire 1 ; IRin $end
$var wire 32 q InPort_data [31:0] $end
$var wire 1 < InPortout $end
$var wire 1 = IncPC $end
$var wire 1 > LOin $end
$var wire 1 ? LOout $end
$var wire 1 @ MARin $end
$var wire 1 A MDRin $end
$var wire 1 B MDRout $end
$var wire 32 r Mdatain [31:0] $end
$var wire 1 D PCin $end
$var wire 1 E PCout $end
$var wire 1 F R0in $end
$var wire 1 G R0out $end
$var wire 1 H R10in $end
$var wire 1 I R10out $end
$var wire 1 J R11in $end
$var wire 1 K R11out $end
$var wire 1 L R12in $end
$var wire 1 M R12out $end
$var wire 1 N R13in $end
$var wire 1 O R13out $end
$var wire 1 P R14in $end
$var wire 1 Q R14out $end
$var wire 1 R R15in $end
$var wire 1 S R15out $end
$var wire 1 T R1in $end
$var wire 1 U R1out $end
$var wire 1 V R2in $end
$var wire 1 W R2out $end
$var wire 1 X R3in $end
$var wire 1 Y R3out $end
$var wire 1 Z R4in $end
$var wire 1 [ R4out $end
$var wire 1 \ R5in $end
$var wire 1 ] R5out $end
$var wire 1 ^ R6in $end
$var wire 1 _ R6out $end
$var wire 1 ` R7in $end
$var wire 1 a R7out $end
$var wire 1 b R8in $end
$var wire 1 c R8out $end
$var wire 1 d R9in $end
$var wire 1 e R9out $end
$var wire 1 f Read $end
$var wire 1 g Yin $end
$var wire 1 h Zhighout $end
$var wire 1 i Zin $end
$var wire 1 j Zlowout $end
$var wire 1 k clear $end
$var wire 1 l clock $end
$var wire 64 s Z_in [63:0] $end
$var wire 64 t Z_data [63:0] $end
$var wire 32 u Y_data [31:0] $end
$var wire 32 v PC_inc [31:0] $end
$var wire 32 w PC_data [31:0] $end
$var wire 32 x MDR_data [31:0] $end
$var wire 32 y MAR_data [31:0] $end
$var wire 32 z LO_data [31:0] $end
$var wire 32 { IR_data [31:0] $end
$var wire 32 | HI_data [31:0] $end
$var wire 32 } BusMuxOut [31:0] $end
$var wire 64 ~ ALU_out [63:0] $end
$scope module HI $end
$var wire 1 k clear $end
$var wire 1 l clock $end
$var wire 1 9 enable $end
$var wire 32 !" BusMuxOut [31:0] $end
$var wire 32 "" BusMuxIn [31:0] $end
$var reg 32 #" q [31:0] $end
$upscope $end
$scope module IR $end
$var wire 1 k clear $end
$var wire 1 l clock $end
$var wire 1 ; enable $end
$var wire 32 $" BusMuxOut [31:0] $end
$var wire 32 %" BusMuxIn [31:0] $end
$var reg 32 &" q [31:0] $end
$upscope $end
$scope module LO $end
$var wire 1 k clear $end
$var wire 1 l clock $end
$var wire 1 > enable $end
$var wire 32 '" BusMuxOut [31:0] $end
$var wire 32 (" BusMuxIn [31:0] $end
$var reg 32 )" q [31:0] $end
$upscope $end
$scope module MAR $end
$var wire 32 *" BusMuxIn [31:0] $end
$var wire 1 k clear $end
$var wire 1 l clock $end
$var wire 1 @ enable $end
$var wire 32 +" BusMuxOut [31:0] $end
$var reg 32 ," q [31:0] $end
$upscope $end
$scope module PC $end
$var wire 1 k clear $end
$var wire 1 l clock $end
$var wire 1 D enable $end
$var wire 32 -" BusMuxOut [31:0] $end
$var wire 32 ." BusMuxIn [31:0] $end
$var reg 32 /" q [31:0] $end
$upscope $end
$scope module R0 $end
$var wire 1 k clear $end
$var wire 1 l clock $end
$var wire 1 F enable $end
$var wire 32 0" BusMuxOut [31:0] $end
$var wire 32 1" BusMuxIn [31:0] $end
$var reg 32 2" q [31:0] $end
$upscope $end
$scope module R1 $end
$var wire 1 k clear $end
$var wire 1 l clock $end
$var wire 1 T enable $end
$var wire 32 3" BusMuxOut [31:0] $end
$var wire 32 4" BusMuxIn [31:0] $end
$var reg 32 5" q [31:0] $end
$upscope $end
$scope module R10 $end
$var wire 1 k clear $end
$var wire 1 l clock $end
$var wire 1 H enable $end
$var wire 32 6" BusMuxOut [31:0] $end
$var wire 32 7" BusMuxIn [31:0] $end
$var reg 32 8" q [31:0] $end
$upscope $end
$scope module R11 $end
$var wire 1 k clear $end
$var wire 1 l clock $end
$var wire 1 J enable $end
$var wire 32 9" BusMuxOut [31:0] $end
$var wire 32 :" BusMuxIn [31:0] $end
$var reg 32 ;" q [31:0] $end
$upscope $end
$scope module R12 $end
$var wire 1 k clear $end
$var wire 1 l clock $end
$var wire 1 L enable $end
$var wire 32 <" BusMuxOut [31:0] $end
$var wire 32 =" BusMuxIn [31:0] $end
$var reg 32 >" q [31:0] $end
$upscope $end
$scope module R13 $end
$var wire 1 k clear $end
$var wire 1 l clock $end
$var wire 1 N enable $end
$var wire 32 ?" BusMuxOut [31:0] $end
$var wire 32 @" BusMuxIn [31:0] $end
$var reg 32 A" q [31:0] $end
$upscope $end
$scope module R14 $end
$var wire 1 k clear $end
$var wire 1 l clock $end
$var wire 1 P enable $end
$var wire 32 B" BusMuxOut [31:0] $end
$var wire 32 C" BusMuxIn [31:0] $end
$var reg 32 D" q [31:0] $end
$upscope $end
$scope module R15 $end
$var wire 1 k clear $end
$var wire 1 l clock $end
$var wire 1 R enable $end
$var wire 32 E" BusMuxOut [31:0] $end
$var wire 32 F" BusMuxIn [31:0] $end
$var reg 32 G" q [31:0] $end
$upscope $end
$scope module R2 $end
$var wire 1 k clear $end
$var wire 1 l clock $end
$var wire 1 V enable $end
$var wire 32 H" BusMuxOut [31:0] $end
$var wire 32 I" BusMuxIn [31:0] $end
$var reg 32 J" q [31:0] $end
$upscope $end
$scope module R3 $end
$var wire 1 k clear $end
$var wire 1 l clock $end
$var wire 1 X enable $end
$var wire 32 K" BusMuxOut [31:0] $end
$var wire 32 L" BusMuxIn [31:0] $end
$var reg 32 M" q [31:0] $end
$upscope $end
$scope module R4 $end
$var wire 1 k clear $end
$var wire 1 l clock $end
$var wire 1 Z enable $end
$var wire 32 N" BusMuxOut [31:0] $end
$var wire 32 O" BusMuxIn [31:0] $end
$var reg 32 P" q [31:0] $end
$upscope $end
$scope module R5 $end
$var wire 1 k clear $end
$var wire 1 l clock $end
$var wire 1 \ enable $end
$var wire 32 Q" BusMuxOut [31:0] $end
$var wire 32 R" BusMuxIn [31:0] $end
$var reg 32 S" q [31:0] $end
$upscope $end
$scope module R6 $end
$var wire 1 k clear $end
$var wire 1 l clock $end
$var wire 1 ^ enable $end
$var wire 32 T" BusMuxOut [31:0] $end
$var wire 32 U" BusMuxIn [31:0] $end
$var reg 32 V" q [31:0] $end
$upscope $end
$scope module R7 $end
$var wire 1 k clear $end
$var wire 1 l clock $end
$var wire 1 ` enable $end
$var wire 32 W" BusMuxOut [31:0] $end
$var wire 32 X" BusMuxIn [31:0] $end
$var reg 32 Y" q [31:0] $end
$upscope $end
$scope module R8 $end
$var wire 1 k clear $end
$var wire 1 l clock $end
$var wire 1 b enable $end
$var wire 32 Z" BusMuxOut [31:0] $end
$var wire 32 [" BusMuxIn [31:0] $end
$var reg 32 \" q [31:0] $end
$upscope $end
$scope module R9 $end
$var wire 1 k clear $end
$var wire 1 l clock $end
$var wire 1 d enable $end
$var wire 32 ]" BusMuxOut [31:0] $end
$var wire 32 ^" BusMuxIn [31:0] $end
$var reg 32 _" q [31:0] $end
$upscope $end
$scope module Y $end
$var wire 1 k clear $end
$var wire 1 l clock $end
$var wire 1 g enable $end
$var wire 32 `" BusMuxOut [31:0] $end
$var wire 32 a" BusMuxIn [31:0] $end
$var reg 32 b" q [31:0] $end
$upscope $end
$scope module Z $end
$var wire 64 c" BusMuxOut [63:0] $end
$var wire 1 k clear $end
$var wire 1 l clock $end
$var wire 1 i enable $end
$var wire 64 d" BusMuxIn [63:0] $end
$var reg 64 e" q [63:0] $end
$upscope $end
$scope module alu_inst $end
$var wire 32 f" A [31:0] $end
$var wire 5 g" ALU_op [4:0] $end
$var wire 32 h" add_B [31:0] $end
$var wire 1 i" sub_ctrl $end
$var wire 3 j" shift_sel [2:0] $end
$var wire 32 k" shift_res [31:0] $end
$var wire 64 l" mul_res [63:0] $end
$var wire 64 m" div_res [63:0] $end
$var wire 32 n" add_sub_res [31:0] $end
$var wire 32 o" add_A [31:0] $end
$var wire 32 p" B [31:0] $end
$var reg 64 q" C [63:0] $end
$scope module add_unit $end
$var wire 32 r" A [31:0] $end
$var wire 32 s" B [31:0] $end
$var wire 1 i" sub_ctrl $end
$var wire 32 t" B_complement [31:0] $end
$var reg 32 u" Result [31:0] $end
$var reg 33 v" carry [32:0] $end
$var integer 32 w" i [31:0] $end
$upscope $end
$scope module div_unit $end
$var wire 32 x" dividend [31:0] $end
$var wire 64 y" result [63:0] $end
$var wire 32 z" divisor [31:0] $end
$var reg 32 {" A [31:0] $end
$var reg 32 |" M [31:0] $end
$var reg 32 }" Q [31:0] $end
$var integer 32 ~" i [31:0] $end
$upscope $end
$scope module mul_unit $end
$var wire 32 !# multiplicand [31:0] $end
$var wire 64 "# result [63:0] $end
$var wire 32 ## multiplier [31:0] $end
$scope function booth_mul_radix4 $end
$upscope $end
$upscope $end
$scope module shift_unit $end
$var wire 32 $# data_in [31:0] $end
$var wire 3 %# op_sel [2:0] $end
$var wire 5 &# shift_count [4:0] $end
$var reg 32 '# data_out [31:0] $end
$upscope $end
$upscope $end
$scope module bus_inst $end
$var wire 32 (# BusMuxInHI [31:0] $end
$var wire 32 )# BusMuxInInPort [31:0] $end
$var wire 32 *# BusMuxInLO [31:0] $end
$var wire 32 +# BusMuxInPC [31:0] $end
$var wire 32 ,# BusMuxInR0 [31:0] $end
$var wire 32 -# BusMuxInR1 [31:0] $end
$var wire 32 .# BusMuxInR10 [31:0] $end
$var wire 32 /# BusMuxInR11 [31:0] $end
$var wire 32 0# BusMuxInR12 [31:0] $end
$var wire 32 1# BusMuxInR13 [31:0] $end
$var wire 32 2# BusMuxInR14 [31:0] $end
$var wire 32 3# BusMuxInR15 [31:0] $end
$var wire 32 4# BusMuxInR2 [31:0] $end
$var wire 32 5# BusMuxInR3 [31:0] $end
$var wire 32 6# BusMuxInR4 [31:0] $end
$var wire 32 7# BusMuxInR5 [31:0] $end
$var wire 32 8# BusMuxInR6 [31:0] $end
$var wire 32 9# BusMuxInR7 [31:0] $end
$var wire 32 :# BusMuxInR8 [31:0] $end
$var wire 32 ;# BusMuxInR9 [31:0] $end
$var wire 32 <# BusMuxInZhigh [31:0] $end
$var wire 32 =# BusMuxInZlow [31:0] $end
$var wire 32 ># C_sign_extended [31:0] $end
$var wire 1 8 Cout $end
$var wire 1 : HIout $end
$var wire 1 < InPortout $end
$var wire 1 ? LOout $end
$var wire 1 B MDRout $end
$var wire 1 E PCout $end
$var wire 1 G R0out $end
$var wire 1 I R10out $end
$var wire 1 K R11out $end
$var wire 1 M R12out $end
$var wire 1 O R13out $end
$var wire 1 Q R14out $end
$var wire 1 S R15out $end
$var wire 1 U R1out $end
$var wire 1 W R2out $end
$var wire 1 Y R3out $end
$var wire 1 [ R4out $end
$var wire 1 ] R5out $end
$var wire 1 _ R6out $end
$var wire 1 a R7out $end
$var wire 1 c R8out $end
$var wire 1 e R9out $end
$var wire 1 h Zhighout $end
$var wire 1 j Zlowout $end
$var wire 5 ?# SelectSignal [4:0] $end
$var wire 32 @# BusMuxInMDR [31:0] $end
$var reg 32 A# BusMuxOut [31:0] $end
$upscope $end
$scope module mdr $end
$var wire 32 B# BusMuxOut [31:0] $end
$var wire 1 A MDRin $end
$var wire 32 C# Mdatain [31:0] $end
$var wire 1 f Read $end
$var wire 1 k clear $end
$var wire 1 l clock $end
$var wire 32 D# MDMuxOut [31:0] $end
$var wire 32 E# BusMuxInMDR [31:0] $end
$scope module mdr_reg $end
$var wire 32 F# BusMuxIn [31:0] $end
$var wire 32 G# BusMuxOut [31:0] $end
$var wire 1 k clear $end
$var wire 1 l clock $end
$var wire 1 A enable $end
$var reg 32 H# q [31:0] $end
$upscope $end
$upscope $end
$upscope $end
$scope task clear_controls $end
$upscope $end
$scope task expect32 $end
$var reg 32 I# actual [31:0] $end
$var reg 32 J# expected [31:0] $end
$var reg 128 K# label [127:0] $end
$upscope $end
$scope task load_reg $end
$var reg 4 L# idx [3:0] $end
$var reg 32 M# value [31:0] $end
$upscope $end
$upscope $end
$enddefinitions $end
#0
$dumpvars
bx M#
bx L#
bx K#
bx J#
bx I#
bx H#
bx G#
bx F#
bx E#
bx D#
b0 C#
bx B#
bx A#
bx @#
b0 ?#
b0 >#
bx =#
bx <#
bx ;#
bx :#
bx 9#
bx 8#
bx 7#
bx 6#
bx 5#
bx 4#
bx 3#
bx 2#
bx 1#
bx 0#
bx /#
bx .#
bx -#
bx ,#
bx +#
bx *#
b0 )#
bx (#
bx '#
bx &#
b0 %#
bx $#
bx ##
b0 "#
bx !#
b100000 ~"
b11111111111111111111111111111111 }"
bx |"
bx {"
bx z"
bx11111111111111111111111111111111 y"
bx x"
b100000 w"
bx0 v"
bx u"
bx t"
bx s"
bx r"
b0xxxxxxxxxxxxxxxxxxxxxxxxxxxxxxxx q"
bx p"
bx o"
bx n"
bx11111111111111111111111111111111 m"
b0 l"
bx k"
b0 j"
0i"
bx h"
b0 g"
bx f"
bx e"
bx d"
b0xxxxxxxxxxxxxxxxxxxxxxxxxxxxxxxx c"
bx b"
bx a"
bx `"
bx _"
bx ^"
bx ]"
bx \"
bx ["
bx Z"
bx Y"
bx X"
bx W"
bx V"
bx U"
bx T"
bx S"
bx R"
bx Q"
bx P"
bx O"
bx N"
bx M"
bx L"
bx K"
bx J"
bx I"
bx H"
bx G"
bx F"
bx E"
bx D"
bx C"
bx B"
bx A"
bx @"
bx ?"
bx >"
bx ="
bx <"
bx ;"
bx :"
bx 9"
bx 8"
bx 7"
bx 6"
bx 5"
bx 4"
bx 3"
bx 2"
bx 1"
bx 0"
bx /"
bx ."
bx -"
bx ,"
bx +"
bx *"
bx )"
bx ("
bx '"
bx &"
bx %"
bx $"
bx #"
bx ""
bx !"
b0xxxxxxxxxxxxxxxxxxxxxxxxxxxxxxxx ~
bx }
bx |
bx {
bx z
bx y
bx x
bx w
bx v
bx u
bx t
b0xxxxxxxxxxxxxxxxxxxxxxxxxxxxxxxx s
b0 r
b0 q
b0 p
bx o
b0 n
b0 m
0l
1k
0j
0i
0h
0g
0f
0e
0d
0c
0b
0a
0`
0_
0^
0]
0\
0[
0Z
0Y
0X
0W
0V
0U
0T
0S
0R
0Q
0P
0O
0N
0M
0L
0K
0J
0I
0H
0G
0F
0E
0D
b0 C
0B
0A
0@
0?
0>
0=
0<
0;
0:
09
08
b0 7
bx 6
bx 5
bx 4
bx 3
bx 2
bx 1
bx 0
bx /
bx .
bx -
bx ,
bx +
bx *
bx )
bx (
bx '
bx &
bx %
bx $
bx #
bx "
bx !
$end
#1000
b0 s
b0 c"
b0 ~
b0 q"
b0 k"
b0 '#
b0 n"
b0 u"
b100000 w"
b0 v"
b0 D#
b0 G#
b0 &#
b0 t"
b0 =#
b0 <#
b0 o"
b0 r"
b11111111111111111111111111111111 {"
b0 |"
b1111111111111111111111111111111111111111111111111111111111111111 m"
b1111111111111111111111111111111111111111111111111111111111111111 y"
b11111111111111111111111111111111 }"
b0 h"
b0 s"
b0 !
b0 6
b0 o
b0 }
b0 !"
b0 $"
b0 '"
b0 +"
b0 -"
b0 0"
b0 3"
b0 6"
b0 9"
b0 <"
b0 ?"
b0 B"
b0 E"
b0 H"
b0 K"
b0 N"
b0 Q"
b0 T"
b0 W"
b0 Z"
b0 ]"
b0 `"
b0 p"
b0 z"
b0 ##
b0 A#
b0 B#
b0 %
b0 1"
b0 2"
b0 ,#
b0 &
b0 4"
b0 5"
b0 -#
b0 -
b0 I"
b0 J"
b0 4#
b0 .
b0 L"
b0 M"
b0 5#
b0 /
b0 O"
b0 P"
b0 6#
b0 0
b0 R"
b0 S"
b0 7#
b0 1
b0 U"
b0 V"
b0 8#
b0 2
b0 X"
b0 Y"
b0 9#
b0 3
b0 ["
b0 \"
b0 :#
b0 4
b0 ^"
b0 _"
b0 ;#
b0 '
b0 7"
b0 8"
b0 .#
b0 (
b0 :"
b0 ;"
b0 /#
b0 )
b0 ="
b0 >"
b0 0#
b0 *
b0 @"
b0 A"
b0 1#
b0 +
b0 C"
b0 D"
b0 2#
b0 ,
b0 F"
b0 G"
b0 3#
b0 5
b0 t
b0 d"
b0 e"
b0 u
b0 a"
b0 b"
b0 f"
b0 x"
b0 !#
b0 $#
b1 v
b0 w
b0 ."
b0 /"
b0 +#
b0 "
b0 |
b0 ""
b0 #"
b0 (#
b0 $
b0 z
b0 ("
b0 )"
b0 *#
b0 y
b0 *"
b0 ,"
b0 #
b0 {
b0 %"
b0 &"
b0 x
b0 @#
b0 E#
b0 F#
b0 H#
1l
#2000
0l
#3000
b110100 M#
b101 L#
0k
1l
#4000
b110100 D#
b110100 G#
1A
1f
b110100 C
b110100 r
b110100 C#
0l
#5000
b110100 x
b110100 @#
b110100 E#
b110100 F#
b110100 H#
1l
#5100
b0 D#
b0 G#
0f
0A
#6000
b110100 s
b110100 c"
b110100 ~
b110100 q"
b110100 n"
b110100 u"
b100000 w"
b110100 D#
b110100 G#
b10100 &#
b110100 t"
b100000 ~"
b0 {"
b110100 |"
b0 m"
b0 y"
b0 }"
b110100 h"
b110100 s"
b110100 !
b110100 6
b110100 o
b110100 }
b110100 !"
b110100 $"
b110100 '"
b110100 +"
b110100 -"
b110100 0"
b110100 3"
b110100 6"
b110100 9"
b110100 <"
b110100 ?"
b110100 B"
b110100 E"
b110100 H"
b110100 K"
b110100 N"
b110100 Q"
b110100 T"
b110100 W"
b110100 Z"
b110100 ]"
b110100 `"
b110100 p"
b110100 z"
b110100 ##
b110100 A#
b110100 B#
b10101 ?#
1\
1B
0l
#7000
b110100 0
b110100 R"
b110100 S"
b110100 7#
1l
#7100
b0 s
b0 c"
b0 ~
b0 q"
b0 n"
b0 u"
b100000 w"
b0 D#
b0 G#
b0 &#
b0 t"
b11111111111111111111111111111111 }"
b1111111111111111111111111111111111111111111111111111111111111111 m"
b1111111111111111111111111111111111111111111111111111111111111111 y"
b11111111111111111111111111111111 {"
b0 |"
b0 h"
b0 s"
b0 !
b0 6
b0 o
b0 }
b0 !"
b0 $"
b0 '"
b0 +"
b0 -"
b0 0"
b0 3"
b0 6"
b0 9"
b0 <"
b0 ?"
b0 B"
b0 E"
b0 H"
b0 K"
b0 N"
b0 Q"
b0 T"
b0 W"
b0 Z"
b0 ]"
b0 `"
b0 p"
b0 z"
b0 ##
b0 A#
b0 B#
b0 ?#
b1000101 M#
b110 L#
b0 C
b0 r
b0 C#
0B
0\
#8000
b1000101 D#
b1000101 G#
1A
1f
b1000101 C
b1000101 r
b1000101 C#
0l
#9000
b1000101 x
b1000101 @#
b1000101 E#
b1000101 F#
b1000101 H#
1l
#9100
b0 D#
b0 G#
0f
0A
#10000
b1000101 s
b1000101 c"
b1000101 ~
b1000101 q"
b1000101 n"
b1000101 u"
b100000 w"
b1000101 D#
b1000101 G#
b101 &#
b1000101 t"
b100000 ~"
b0 {"
b1000101 |"
b0 m"
b0 y"
b0 }"
b1000101 h"
b1000101 s"
b1000101 !
b1000101 6
b1000101 o
b1000101 }
b1000101 !"
b1000101 $"
b1000101 '"
b1000101 +"
b1000101 -"
b1000101 0"
b1000101 3"
b1000101 6"
b1000101 9"
b1000101 <"
b1000101 ?"
b1000101 B"
b1000101 E"
b1000101 H"
b1000101 K"
b1000101 N"
b1000101 Q"
b1000101 T"
b1000101 W"
b1000101 Z"
b1000101 ]"
b1000101 `"
b1000101 p"
b1000101 z"
b1000101 ##
b1000101 A#
b1000101 B#
b10101 ?#
1^
1B
0l
#11000
b1000101 1
b1000101 U"
b1000101 V"
b1000101 8#
1l
#11100
b0 s
b0 c"
b0 ~
b0 q"
b0 n"
b0 u"
b100000 w"
b0 D#
b0 G#
b0 &#
b0 t"
b11111111111111111111111111111111 }"
b1111111111111111111111111111111111111111111111111111111111111111 m"
b1111111111111111111111111111111111111111111111111111111111111111 y"
b11111111111111111111111111111111 {"
b0 |"
b0 h"
b0 s"
b0 !
b0 6
b0 o
b0 }
b0 !"
b0 $"
b0 '"
b0 +"
b0 -"
b0 0"
b0 3"
b0 6"
b0 9"
b0 <"
b0 ?"
b0 B"
b0 E"
b0 H"
b0 K"
b0 N"
b0 Q"
b0 T"
b0 W"
b0 Z"
b0 ]"
b0 `"
b0 p"
b0 z"
b0 ##
b0 A#
b0 B#
b0 ?#
b0 C
b0 r
b0 C#
0B
0^
#12000
b10100 ?#
b1 s
b1 c"
1i
1=
1@
1E
0l
#13000
b1 =#
b1 5
b1 t
b1 d"
b1 e"
1l
#13100
b0 ?#
b0 s
b0 c"
0@
0i
0=
0E
#14000
b1 s
b1 c"
b1 ~
b1 q"
b1 n"
b1 u"
b100000 w"
b1 &#
b1 t"
b100000 ~"
b0 {"
b1 |"
b0 m"
b0 y"
b0 }"
b1 h"
b1 s"
b1 !
b1 6
b1 o
b1 }
b1 !"
b1 $"
b1 '"
b1 +"
b1 -"
b1 0"
b1 3"
b1 6"
b1 9"
b1 <"
b1 ?"
b1 B"
b1 E"
b1 H"
b1 K"
b1 N"
b1 Q"
b1 T"
b1 W"
b1 Z"
b1 ]"
b1 `"
b1 p"
b1 z"
b1 ##
b1 A#
b1 B#
b10011 ?#
b10001001010110000000000000000 D#
b10001001010110000000000000000 G#
b10001001010110000000000000000 C
b10001001010110000000000000000 r
b10001001010110000000000000000 C#
1A
1f
1D
1j
0l
#15000
b10001001010110000000000000000 x
b10001001010110000000000000000 @#
b10001001010110000000000000000 E#
b10001001010110000000000000000 F#
b10001001010110000000000000000 H#
b10 v
b1 w
b1 ."
b1 /"
b1 +#
1l
#15100
b0 s
b0 c"
b0 ~
b0 q"
b0 n"
b0 u"
b100000 w"
b0 &#
b0 t"
b11111111111111111111111111111111 }"
b1111111111111111111111111111111111111111111111111111111111111111 m"
b1111111111111111111111111111111111111111111111111111111111111111 y"
b11111111111111111111111111111111 {"
b0 |"
b0 h"
b0 s"
b0 !
b0 6
b0 o
b0 }
b0 !"
b0 $"
b0 '"
b0 +"
b0 -"
b0 0"
b0 3"
b0 6"
b0 9"
b0 <"
b0 ?"
b0 B"
b0 E"
b0 H"
b0 K"
b0 N"
b0 Q"
b0 T"
b0 W"
b0 Z"
b0 ]"
b0 `"
b0 p"
b0 z"
b0 ##
b0 A#
b0 B#
b0 ?#
b0 D#
b0 G#
0j
0f
0A
0D
#16000
b10001001010110000000000000000 s
b10001001010110000000000000000 c"
b10001001010110000000000000000 ~
b10001001010110000000000000000 q"
b10001001010110000000000000000 n"
b10001001010110000000000000000 u"
b100000 w"
b10001001010110000000000000000 D#
b10001001010110000000000000000 G#
b10001001010110000000000000000 t"
b100000 ~"
b0 {"
b10001001010110000000000000000 |"
b0 m"
b0 y"
b0 }"
b10001001010110000000000000000 h"
b10001001010110000000000000000 s"
b10001001010110000000000000000 !
b10001001010110000000000000000 6
b10001001010110000000000000000 o
b10001001010110000000000000000 }
b10001001010110000000000000000 !"
b10001001010110000000000000000 $"
b10001001010110000000000000000 '"
b10001001010110000000000000000 +"
b10001001010110000000000000000 -"
b10001001010110000000000000000 0"
b10001001010110000000000000000 3"
b10001001010110000000000000000 6"
b10001001010110000000000000000 9"
b10001001010110000000000000000 <"
b10001001010110000000000000000 ?"
b10001001010110000000000000000 B"
b10001001010110000000000000000 E"
b10001001010110000000000000000 H"
b10001001010110000000000000000 K"
b10001001010110000000000000000 N"
b10001001010110000000000000000 Q"
b10001001010110000000000000000 T"
b10001001010110000000000000000 W"
b10001001010110000000000000000 Z"
b10001001010110000000000000000 ]"
b10001001010110000000000000000 `"
b10001001010110000000000000000 p"
b10001001010110000000000000000 z"
b10001001010110000000000000000 ##
b10001001010110000000000000000 A#
b10001001010110000000000000000 B#
b10101 ?#
1;
1B
0l
#17000
b10001001010110000000000000000 #
b10001001010110000000000000000 {
b10001001010110000000000000000 %"
b10001001010110000000000000000 &"
1l
#17100
b0 s
b0 c"
b0 ~
b0 q"
b0 n"
b0 u"
b100000 w"
b0 D#
b0 G#
b0 t"
b11111111111111111111111111111111 }"
b1111111111111111111111111111111111111111111111111111111111111111 m"
b1111111111111111111111111111111111111111111111111111111111111111 y"
b11111111111111111111111111111111 {"
b0 |"
b0 h"
b0 s"
b0 !
b0 6
b0 o
b0 }
b0 !"
b0 $"
b0 '"
b0 +"
b0 -"
b0 0"
b0 3"
b0 6"
b0 9"
b0 <"
b0 ?"
b0 B"
b0 E"
b0 H"
b0 K"
b0 N"
b0 Q"
b0 T"
b0 W"
b0 Z"
b0 ]"
b0 `"
b0 p"
b0 z"
b0 ##
b0 A#
b0 B#
b0 ?#
0B
0;
#18000
b110100 s
b110100 c"
b110100 ~
b110100 q"
b110100 n"
b110100 u"
b100000 w"
b110100 D#
b110100 G#
b10100 &#
b110100 t"
b100000 ~"
b0 {"
b110100 |"
b0 m"
b0 y"
b0 }"
b110100 h"
b110100 s"
b110100 !
b110100 6
b110100 o
b110100 }
b110100 !"
b110100 $"
b110100 '"
b110100 +"
b110100 -"
b110100 0"
b110100 3"
b110100 6"
b110100 9"
b110100 <"
b110100 ?"
b110100 B"
b110100 E"
b110100 H"
b110100 K"
b110100 N"
b110100 Q"
b110100 T"
b110100 W"
b110100 Z"
b110100 ]"
b110100 `"
b110100 p"
b110100 z"
b110100 ##
b110100 A#
b110100 B#
b101 ?#
1g
1]
0l
#19000
b1101000 s
b1101000 c"
b1101000 ~
b1101000 q"
b1101000 v"
b1101000 n"
b1101000 u"
b100000 w"
b110100 o"
b110100 r"
b101010010000 l"
b101010010000 "#
b0 {"
b100000 ~"
b1 m"
b1 y"
b1 }"
b110100 u
b110100 a"
b110100 b"
b110100 f"
b110100 x"
b110100 !#
b110100 $#
1l
#19100
b110100 s
b110100 c"
b110100 ~
b110100 q"
b110100 k"
b110100 '#
b110100 n"
b110100 u"
b100000 w"
b0 v"
b0 D#
b0 G#
b0 l"
b0 "#
b0 &#
b0 t"
b11111111111111111111111111111111 {"
b0 |"
b1111111111111111111111111111111111111111111111111111111111111111 m"
b1111111111111111111111111111111111111111111111111111111111111111 y"
b11111111111111111111111111111111 }"
b0 h"
b0 s"
b0 !
b0 6
b0 o
b0 }
b0 !"
b0 $"
b0 '"
b0 +"
b0 -"
b0 0"
b0 3"
b0 6"
b0 9"
b0 <"
b0 ?"
b0 B"
b0 E"
b0 H"
b0 K"
b0 N"
b0 Q"
b0 T"
b0 W"
b0 Z"
b0 ]"
b0 `"
b0 p"
b0 z"
b0 ##
b0 A#
b0 B#
b0 ?#
0g
0]
