dump.vcd
$date
	Sun Feb  8 15:58:59 2026
$end
$version
	Icarus Verilog
$end
$timescale
	10ps
$end
$scope module Phase1_tb $end
$var wire 32 ! BusMuxOut_out [31:0] $end
$var reg 5 " ALU_op [4:0] $end
$var reg 1 # Cout $end
$var reg 1 $ HIin $end
$var reg 1 % HIout $end
$var reg 1 & IRin $end
$var reg 1 ' InPortout $end
$var reg 1 ( LOin $end
$var reg 1 ) LOout $end
$var reg 1 * MARin $end
$var reg 1 + MDRin $end
$var reg 1 , MDRout $end
$var reg 32 - Mdatain [31:0] $end
$var reg 1 . PCin $end
$var reg 1 / PCout $end
$var reg 1 0 R0in $end
$var reg 1 1 R0out $end
$var reg 1 2 R10in $end
$var reg 1 3 R10out $end
$var reg 1 4 R11in $end
$var reg 1 5 R11out $end
$var reg 1 6 R12in $end
$var reg 1 7 R12out $end
$var reg 1 8 R13in $end
$var reg 1 9 R13out $end
$var reg 1 : R14in $end
$var reg 1 ; R14out $end
$var reg 1 < R15in $end
$var reg 1 = R15out $end
$var reg 1 > R1in $end
$var reg 1 ? R1out $end
$var reg 1 @ R2in $end
$var reg 1 A R2out $end
$var reg 1 B R3in $end
$var reg 1 C R3out $end
$var reg 1 D R4in $end
$var reg 1 E R4out $end
$var reg 1 F R5in $end
$var reg 1 G R5out $end
$var reg 1 H R6in $end
$var reg 1 I R6out $end
$var reg 1 J R7in $end
$var reg 1 K R7out $end
$var reg 1 L R8in $end
$var reg 1 M R8out $end
$var reg 1 N R9in $end
$var reg 1 O R9out $end
$var reg 1 P Read $end
$var reg 1 Q Yin $end
$var reg 1 R Zhighout $end
$var reg 1 S Zin $end
$var reg 1 T Zlowout $end
$var reg 1 U clear $end
$var reg 1 V clock $end
$var integer 32 W errors [31:0] $end
$scope module DUT $end
$var wire 5 X ALU_op [4:0] $end
$var wire 32 Y BusMuxOut_out [31:0] $end
$var wire 32 Z C_sign_extended [31:0] $end
$var wire 1 # Cout $end
$var wire 1 $ HIin $end
$var wire 1 % HIout $end
$var wire 1 & IRin $end
$var wire 32 [ InPort_data [31:0] $end
$var wire 1 ' InPortout $end
$var wire 1 ( LOin $end
$var wire 1 ) LOout $end
$var wire 1 * MARin $end
$var wire 1 + MDRin $end
$var wire 1 , MDRout $end
$var wire 32 \ Mdatain [31:0] $end
$var wire 1 . PCin $end
$var wire 1 / PCout $end
$var wire 1 0 R0in $end
$var wire 1 1 R0out $end
$var wire 1 2 R10in $end
$var wire 1 3 R10out $end
$var wire 1 4 R11in $end
$var wire 1 5 R11out $end
$var wire 1 6 R12in $end
$var wire 1 7 R12out $end
$var wire 1 8 R13in $end
$var wire 1 9 R13out $end
$var wire 1 : R14in $end
$var wire 1 ; R14out $end
$var wire 1 < R15in $end
$var wire 1 = R15out $end
$var wire 1 > R1in $end
$var wire 1 ? R1out $end
$var wire 1 @ R2in $end
$var wire 1 A R2out $end
$var wire 1 B R3in $end
$var wire 1 C R3out $end
$var wire 1 D R4in $end
$var wire 1 E R4out $end
$var wire 1 F R5in $end
$var wire 1 G R5out $end
$var wire 1 H R6in $end
$var wire 1 I R6out $end
$var wire 1 J R7in $end
$var wire 1 K R7out $end
$var wire 1 L R8in $end
$var wire 1 M R8out $end
$var wire 1 N R9in $end
$var wire 1 O R9out $end
$var wire 1 P Read $end
$var wire 1 Q Yin $end
$var wire 1 R Zhighout $end
$var wire 1 S Zin $end
$var wire 1 T Zlowout $end
$var wire 1 U clear $end
$var wire 1 V clock $end
$var wire 64 ] Z_data [63:0] $end
$var wire 32 ^ Y_data [31:0] $end
$var wire 32 _ PC_data [31:0] $end
$var wire 32 ` MDR_data [31:0] $end
$var wire 32 a MAR_data [31:0] $end
$var wire 32 b LO_data [31:0] $end
$var wire 32 c IR_data [31:0] $end
$var wire 32 d HI_data [31:0] $end
$var wire 32 e BusMuxOut [31:0] $end
$var wire 64 f ALU_out [63:0] $end
$scope module HI $end
$var wire 32 g BusMuxIn [31:0] $end
$var wire 1 U clear $end
$var wire 1 V clock $end
$var wire 1 $ enable $end
$var wire 32 h BusMuxOut [31:0] $end
$var reg 32 i q [31:0] $end
$upscope $end
$scope module IR $end
$var wire 32 j BusMuxIn [31:0] $end
$var wire 1 U clear $end
$var wire 1 V clock $end
$var wire 1 & enable $end
$var wire 32 k BusMuxOut [31:0] $end
$var reg 32 l q [31:0] $end
$upscope $end
$scope module LO $end
$var wire 32 m BusMuxIn [31:0] $end
$var wire 1 U clear $end
$var wire 1 V clock $end
$var wire 1 ( enable $end
$var wire 32 n BusMuxOut [31:0] $end
$var reg 32 o q [31:0] $end
$upscope $end
$scope module MAR $end
$var wire 32 p BusMuxIn [31:0] $end
$var wire 1 U clear $end
$var wire 1 V clock $end
$var wire 1 * enable $end
$var wire 32 q BusMuxOut [31:0] $end
$var reg 32 r q [31:0] $end
$upscope $end
$scope module PC $end
$var wire 32 s BusMuxIn [31:0] $end
$var wire 1 U clear $end
$var wire 1 V clock $end
$var wire 1 . enable $end
$var wire 32 t BusMuxOut [31:0] $end
$var reg 32 u q [31:0] $end
$upscope $end
$scope module R0 $end
$var wire 32 v BusMuxIn [31:0] $end
$var wire 1 U clear $end
$var wire 1 V clock $end
$var wire 1 0 enable $end
$var wire 32 w BusMuxOut [31:0] $end
$var reg 32 x q [31:0] $end
$upscope $end
$scope module R1 $end
$var wire 32 y BusMuxIn [31:0] $end
$var wire 1 U clear $end
$var wire 1 V clock $end
$var wire 1 > enable $end
$var wire 32 z BusMuxOut [31:0] $end
$var reg 32 { q [31:0] $end
$upscope $end
$scope module R10 $end
$var wire 32 | BusMuxIn [31:0] $end
$var wire 1 U clear $end
$var wire 1 V clock $end
$var wire 1 2 enable $end
$var wire 32 } BusMuxOut [31:0] $end
$var reg 32 ~ q [31:0] $end
$upscope $end
$scope module R11 $end
$var wire 32 !" BusMuxIn [31:0] $end
$var wire 1 U clear $end
$var wire 1 V clock $end
$var wire 1 4 enable $end
$var wire 32 "" BusMuxOut [31:0] $end
$var reg 32 #" q [31:0] $end
$upscope $end
$scope module R12 $end
$var wire 32 $" BusMuxIn [31:0] $end
$var wire 1 U clear $end
$var wire 1 V clock $end
$var wire 1 6 enable $end
$var wire 32 %" BusMuxOut [31:0] $end
$var reg 32 &" q [31:0] $end
$upscope $end
$scope module R13 $end
$var wire 32 '" BusMuxIn [31:0] $end
$var wire 1 U clear $end
$var wire 1 V clock $end
$var wire 1 8 enable $end
$var wire 32 (" BusMuxOut [31:0] $end
$var reg 32 )" q [31:0] $end
$upscope $end
$scope module R14 $end
$var wire 32 *" BusMuxIn [31:0] $end
$var wire 1 U clear $end
$var wire 1 V clock $end
$var wire 1 : enable $end
$var wire 32 +" BusMuxOut [31:0] $end
$var reg 32 ," q [31:0] $end
$upscope $end
$scope module R15 $end
$var wire 32 -" BusMuxIn [31:0] $end
$var wire 1 U clear $end
$var wire 1 V clock $end
$var wire 1 < enable $end
$var wire 32 ." BusMuxOut [31:0] $end
$var reg 32 /" q [31:0] $end
$upscope $end
$scope module R2 $end
$var wire 32 0" BusMuxIn [31:0] $end
$var wire 1 U clear $end
$var wire 1 V clock $end
$var wire 1 @ enable $end
$var wire 32 1" BusMuxOut [31:0] $end
$var reg 32 2" q [31:0] $end
$upscope $end
$scope module R3 $end
$var wire 32 3" BusMuxIn [31:0] $end
$var wire 1 U clear $end
$var wire 1 V clock $end
$var wire 1 B enable $end
$var wire 32 4" BusMuxOut [31:0] $end
$var reg 32 5" q [31:0] $end
$upscope $end
$scope module R4 $end
$var wire 32 6" BusMuxIn [31:0] $end
$var wire 1 U clear $end
$var wire 1 V clock $end
$var wire 1 D enable $end
$var wire 32 7" BusMuxOut [31:0] $end
$var reg 32 8" q [31:0] $end
$upscope $end
$scope module R5 $end
$var wire 32 9" BusMuxIn [31:0] $end
$var wire 1 U clear $end
$var wire 1 V clock $end
$var wire 1 F enable $end
$var wire 32 :" BusMuxOut [31:0] $end
$var reg 32 ;" q [31:0] $end
$upscope $end
$scope module R6 $end
$var wire 32 <" BusMuxIn [31:0] $end
$var wire 1 U clear $end
$var wire 1 V clock $end
$var wire 1 H enable $end
$var wire 32 =" BusMuxOut [31:0] $end
$var reg 32 >" q [31:0] $end
$upscope $end
$scope module R7 $end
$var wire 32 ?" BusMuxIn [31:0] $end
$var wire 1 U clear $end
$var wire 1 V clock $end
$var wire 1 J enable $end
$var wire 32 @" BusMuxOut [31:0] $end
$var reg 32 A" q [31:0] $end
$upscope $end
$scope module R8 $end
$var wire 32 B" BusMuxIn [31:0] $end
$var wire 1 U clear $end
$var wire 1 V clock $end
$var wire 1 L enable $end
$var wire 32 C" BusMuxOut [31:0] $end
$var reg 32 D" q [31:0] $end
$upscope $end
$scope module R9 $end
$var wire 32 E" BusMuxIn [31:0] $end
$var wire 1 U clear $end
$var wire 1 V clock $end
$var wire 1 N enable $end
$var wire 32 F" BusMuxOut [31:0] $end
$var reg 32 G" q [31:0] $end
$upscope $end
$scope module Y $end
$var wire 1 U clear $end
$var wire 1 V clock $end
$var wire 1 Q enable $end
$var wire 32 H" BusMuxOut [31:0] $end
$var wire 32 I" BusMuxIn [31:0] $end
$var reg 32 J" q [31:0] $end
$upscope $end
$scope module Z $end
$var wire 1 U clear $end
$var wire 1 V clock $end
$var wire 1 S enable $end
$var wire 64 K" BusMuxOut [63:0] $end
$var wire 64 L" BusMuxIn [63:0] $end
$var reg 64 M" q [63:0] $end
$upscope $end
$scope module alu_inst $end
$var wire 32 N" A [31:0] $end
$var wire 5 O" ALU_op [4:0] $end
$var wire 32 P" add_B [31:0] $end
$var wire 1 Q" sub_ctrl $end
$var wire 3 R" shift_sel [2:0] $end
$var wire 32 S" shift_res [31:0] $end
$var wire 64 T" mul_res [63:0] $end
$var wire 64 U" div_res [63:0] $end
$var wire 32 V" add_sub_res [31:0] $end
$var wire 32 W" add_A [31:0] $end
$var wire 32 X" B [31:0] $end
$var reg 64 Y" C [63:0] $end
$scope module add_unit $end
$var wire 32 Z" A [31:0] $end
$var wire 32 [" B [31:0] $end
$var wire 1 Q" sub_ctrl $end
$var wire 32 \" B_complement [31:0] $end
$var reg 32 ]" Result [31:0] $end
$var reg 33 ^" carry [32:0] $end
$var integer 32 _" i [31:0] $end
$upscope $end
$scope module div_unit $end
$var wire 32 `" dividend [31:0] $end
$var wire 64 a" result [63:0] $end
$var wire 32 b" divisor [31:0] $end
$var reg 32 c" A [31:0] $end
$var reg 32 d" M [31:0] $end
$var reg 32 e" Q [31:0] $end
$var integer 32 f" i [31:0] $end
$upscope $end
$scope module mul_unit $end
$var wire 32 g" multiplicand [31:0] $end
$var wire 64 h" result [63:0] $end
$var wire 32 i" multiplier [31:0] $end
$scope function booth_mul_radix4 $end
$upscope $end
$upscope $end
$scope module shift_unit $end
$var wire 32 j" data_in [31:0] $end
$var wire 3 k" op_sel [2:0] $end
$var wire 5 l" shift_count [4:0] $end
$var reg 32 m" data_out [31:0] $end
$upscope $end
$upscope $end
$scope module bus_inst $end
$var wire 32 n" BusMuxInHI [31:0] $end
$var wire 32 o" BusMuxInInPort [31:0] $end
$var wire 32 p" BusMuxInLO [31:0] $end
$var wire 32 q" BusMuxInPC [31:0] $end
$var wire 32 r" BusMuxInR0 [31:0] $end
$var wire 32 s" BusMuxInR1 [31:0] $end
$var wire 32 t" BusMuxInR10 [31:0] $end
$var wire 32 u" BusMuxInR11 [31:0] $end
$var wire 32 v" BusMuxInR12 [31:0] $end
$var wire 32 w" BusMuxInR13 [31:0] $end
$var wire 32 x" BusMuxInR14 [31:0] $end
$var wire 32 y" BusMuxInR15 [31:0] $end
$var wire 32 z" BusMuxInR2 [31:0] $end
$var wire 32 {" BusMuxInR3 [31:0] $end
$var wire 32 |" BusMuxInR4 [31:0] $end
$var wire 32 }" BusMuxInR5 [31:0] $end
$var wire 32 ~" BusMuxInR6 [31:0] $end
$var wire 32 !# BusMuxInR7 [31:0] $end
$var wire 32 "# BusMuxInR8 [31:0] $end
$var wire 32 ## BusMuxInR9 [31:0] $end
$var wire 32 $# BusMuxInZhigh [31:0] $end
$var wire 32 %# BusMuxInZlow [31:0] $end
$var wire 32 &# C_sign_extended [31:0] $end
$var wire 1 # Cout $end
$var wire 1 % HIout $end
$var wire 1 ' InPortout $end
$var wire 1 ) LOout $end
$var wire 1 , MDRout $end
$var wire 1 / PCout $end
$var wire 1 1 R0out $end
$var wire 1 3 R10out $end
$var wire 1 5 R11out $end
$var wire 1 7 R12out $end
$var wire 1 9 R13out $end
$var wire 1 ; R14out $end
$var wire 1 = R15out $end
$var wire 1 ? R1out $end
$var wire 1 A R2out $end
$var wire 1 C R3out $end
$var wire 1 E R4out $end
$var wire 1 G R5out $end
$var wire 1 I R6out $end
$var wire 1 K R7out $end
$var wire 1 M R8out $end
$var wire 1 O R9out $end
$var wire 1 R Zhighout $end
$var wire 1 T Zlowout $end
$var wire 5 '# SelectSignal [4:0] $end
$var wire 32 (# BusMuxInMDR [31:0] $end
$var reg 32 )# BusMuxOut [31:0] $end
$upscope $end
$scope module mdr $end
$var wire 32 *# BusMuxOut [31:0] $end
$var wire 1 + MDRin $end
$var wire 32 +# Mdatain [31:0] $end
$var wire 1 P Read $end
$var wire 1 U clear $end
$var wire 1 V clock $end
$var wire 32 ,# MDMuxOut [31:0] $end
$var wire 32 -# BusMuxInMDR [31:0] $end
$scope module mdr_reg $end
$var wire 32 .# BusMuxIn [31:0] $end
$var wire 32 /# BusMuxOut [31:0] $end
$var wire 1 U clear $end
$var wire 1 V clock $end
$var wire 1 + enable $end
$var reg 32 0# q [31:0] $end
$upscope $end
$upscope $end
$upscope $end
$scope task check_reg $end
$var reg 32 1# expected [31:0] $end
$var reg 128 2# label [127:0] $end
$var integer 32 3# idx [31:0] $end
$upscope $end
$scope task clear_controls $end
$upscope $end
$scope task exec_bin_op $end
$var reg 32 4# expected [31:0] $end
$var reg 128 5# label [127:0] $end
$var reg 5 6# op [4:0] $end
$var integer 32 7# dst [31:0] $end
$var integer 32 8# srcA [31:0] $end
$var integer 32 9# srcB [31:0] $end
$upscope $end
$scope task exec_div $end
$var reg 32 :# exp_quo [31:0] $end
$var reg 32 ;# exp_rem [31:0] $end
$var reg 128 <# label [127:0] $end
$var integer 32 =# srcA [31:0] $end
$var integer 32 ># srcB [31:0] $end
$upscope $end
$scope task exec_mul $end
$var reg 32 ?# exp_hi [31:0] $end
$var reg 32 @# exp_lo [31:0] $end
$var reg 128 A# label [127:0] $end
$var integer 32 B# srcA [31:0] $end
$var integer 32 C# srcB [31:0] $end
$upscope $end
$scope task exec_shift_op $end
$var reg 32 D# expected [31:0] $end
$var reg 128 E# label [127:0] $end
$var reg 5 F# op [4:0] $end
$var integer 32 G# count_reg [31:0] $end
$var integer 32 H# dst [31:0] $end
$var integer 32 I# src [31:0] $end
$upscope $end
$scope task exec_unary_op $end
$var reg 32 J# expected [31:0] $end
$var reg 128 K# label [127:0] $end
$var reg 5 L# op [4:0] $end
$var integer 32 M# dst [31:0] $end
$var integer 32 N# src [31:0] $end
$upscope $end
$scope task load_reg $end
$var reg 32 O# value [31:0] $end
$var integer 32 P# idx [31:0] $end
$upscope $end
$scope task set_Rin $end
$var reg 1 Q# val $end
$var integer 32 R# idx [31:0] $end
$upscope $end
$scope task set_Rout $end
$var reg 1 S# val $end
$var integer 32 T# idx [31:0] $end
$upscope $end
$upscope $end
$enddefinitions $end
#0
$dumpvars
bx T#
xS#
bx R#
xQ#
bx P#
bx O#
bx N#
bx M#
bx L#
bx K#
bx J#
bx I#
bx H#
bx G#
bx F#
bx E#
bx D#
bx C#
bx B#
bx A#
bx @#
bx ?#
bx >#
bx =#
bx <#
bx ;#
bx :#
bx 9#
bx 8#
bx 7#
bx 6#
bx 5#
bx 4#
bx 3#
bx 2#
bx 1#
bx 0#
bx /#
bx .#
bx -#
bx ,#
b0 +#
bx *#
bx )#
bx (#
b0 '#
b0 &#
bx %#
bx $#
bx ##
bx "#
bx !#
bx ~"
bx }"
bx |"
bx {"
bx z"
bx y"
bx x"
bx w"
bx v"
bx u"
bx t"
bx s"
bx r"
bx q"
bx p"
b0 o"
bx n"
bx m"
bx l"
b0 k"
bx j"
bx i"
b0 h"
bx g"
b100000 f"
b11111111111111111111111111111111 e"
bx d"
bx c"
bx b"
bx11111111111111111111111111111111 a"
bx `"
b100000 _"
bx0 ^"
bx ]"
bx \"
bx ["
bx Z"
b0xxxxxxxxxxxxxxxxxxxxxxxxxxxxxxxx Y"
bx X"
bx W"
bx V"
bx11111111111111111111111111111111 U"
b0 T"
bx S"
b0 R"
0Q"
bx P"
b0 O"
bx N"
bx M"
bx L"
b0xxxxxxxxxxxxxxxxxxxxxxxxxxxxxxxx K"
bx J"
bx I"
bx H"
bx G"
bx F"
bx E"
bx D"
bx C"
bx B"
bx A"
bx @"
bx ?"
bx >"
bx ="
bx <"
bx ;"
bx :"
bx 9"
bx 8"
bx 7"
bx 6"
bx 5"
bx 4"
bx 3"
bx 2"
bx 1"
bx 0"
bx /"
bx ."
bx -"
bx ,"
bx +"
bx *"
bx )"
bx ("
bx '"
bx &"
bx %"
bx $"
bx #"
bx ""
bx !"
bx ~
bx }
bx |
bx {
bx z
bx y
bx x
bx w
bx v
bx u
bx t
bx s
bx r
bx q
bx p
bx o
bx n
bx m
bx l
bx k
bx j
bx i
bx h
bx g
b0xxxxxxxxxxxxxxxxxxxxxxxxxxxxxxxx f
bx e
bx d
bx c
bx b
bx a
bx `
bx _
bx ^
bx ]
b0 \
b0 [
b0 Z
bx Y
b0 X
b0 W
0V
1U
0T
0S
0R
0Q
0P
0O
0N
0M
0L
0K
0J
0I
0H
0G
0F
0E
0D
0C
0B
0A
0@
0?
0>
0=
0<
0;
0:
09
08
07
06
05
04
03
02
01
00
0/
0.
b0 -
0,
0+
0*
0)
0(
0'
0&
0%
0$
0#
b0 "
bx !
$end
#1000
b0 f
b0 K"
b0 Y"
b0 S"
b0 m"
b0 V"
b0 ]"
b100000 _"
b0 ^"
b0 ,#
b0 /#
b0 l"
b0 \"
b0 %#
b0 $#
b0 W"
b0 Z"
b11111111111111111111111111111111 c"
b0 d"
b1111111111111111111111111111111111111111111111111111111111111111 U"
b1111111111111111111111111111111111111111111111111111111111111111 a"
b11111111111111111111111111111111 e"
b0 P"
b0 ["
b0 !
b0 Y
b0 e
b0 h
b0 k
b0 n
b0 q
b0 t
b0 w
b0 z
b0 }
b0 ""
b0 %"
b0 ("
b0 +"
b0 ."
b0 1"
b0 4"
b0 7"
b0 :"
b0 ="
b0 @"
b0 C"
b0 F"
b0 H"
b0 X"
b0 b"
b0 i"
b0 )#
b0 *#
b0 v
b0 r"
b0 x
b0 y
b0 s"
b0 {
b0 0"
b0 z"
b0 2"
b0 3"
b0 {"
b0 5"
b0 6"
b0 |"
b0 8"
b0 9"
b0 }"
b0 ;"
b0 <"
b0 ~"
b0 >"
b0 ?"
b0 !#
b0 A"
b0 B"
b0 "#
b0 D"
b0 E"
b0 ##
b0 G"
b0 |
b0 t"
b0 ~
b0 !"
b0 u"
b0 #"
b0 $"
b0 v"
b0 &"
b0 '"
b0 w"
b0 )"
b0 *"
b0 x"
b0 ,"
b0 -"
b0 y"
b0 /"
b0 ]
b0 L"
b0 M"
b0 ^
b0 I"
b0 J"
b0 N"
b0 `"
b0 g"
b0 j"
b0 _
b0 s
b0 q"
b0 u
b0 d
b0 g
b0 n"
b0 i
b0 b
b0 m
b0 p"
b0 o
b0 a
b0 p
b0 r
b0 c
b0 j
b0 l
b0 `
b0 (#
b0 -#
b0 .#
b0 0#
1V
#2000
0V
#3000
b110100 O#
b101 P#
0U
1V
#4000
b110100 ,#
b110100 /#
1+
1P
b110100 -
b110100 \
b110100 +#
0V
#5000
b110100 `
b110100 (#
b110100 -#
b110100 .#
b110100 0#
1V
#5100
b0 ,#
b0 /#
0P
0+
#6000
b110100 f
b110100 K"
b110100 Y"
b110100 V"
b110100 ]"
b100000 _"
b110100 ,#
b110100 /#
b10100 l"
b110100 \"
b100000 f"
b0 c"
b110100 d"
b0 U"
b0 a"
b0 e"
b110100 P"
b110100 ["
b110100 !
b110100 Y
b110100 e
b110100 h
b110100 k
b110100 n
b110100 q
b110100 t
b110100 w
b110100 z
b110100 }
b110100 ""
b110100 %"
b110100 ("
b110100 +"
b110100 ."
b110100 1"
b110100 4"
b110100 7"
b110100 :"
b110100 ="
b110100 @"
b110100 C"
b110100 F"
b110100 H"
b110100 X"
b110100 b"
b110100 i"
b110100 )#
b110100 *#
b10101 '#
1F
1Q#
b101 R#
1,
0V
#7000
b110100 9"
b110100 }"
b110100 ;"
1V
#7100
b0 f
b0 K"
b0 Y"
b0 V"
b0 ]"
b100000 _"
b0 ,#
b0 /#
b0 l"
b0 \"
b11111111111111111111111111111111 e"
b1111111111111111111111111111111111111111111111111111111111111111 U"
b1111111111111111111111111111111111111111111111111111111111111111 a"
b11111111111111111111111111111111 c"
b0 d"
b0 P"
b0 ["
b0 !
b0 Y
b0 e
b0 h
b0 k
b0 n
b0 q
b0 t
b0 w
b0 z
b0 }
b0 ""
b0 %"
b0 ("
b0 +"
b0 ."
b0 1"
b0 4"
b0 7"
b0 :"
b0 ="
b0 @"
b0 C"
b0 F"
b0 H"
b0 X"
b0 b"
b0 i"
b0 )#
b0 *#
b0 '#
b1000101 O#
b110 P#
b0 -
b0 \
b0 +#
0,
0F
#8000
b1000101 ,#
b1000101 /#
1+
1P
b1000101 -
b1000101 \
b1000101 +#
0V
#9000
b1000101 `
b1000101 (#
b1000101 -#
b1000101 .#
b1000101 0#
1V
#9100
b0 ,#
b0 /#
0P
0+
#10000
b1000101 f
b1000101 K"
b1000101 Y"
b1000101 V"
b1000101 ]"
b100000 _"
b1000101 ,#
b1000101 /#
b101 l"
b1000101 \"
b100000 f"
b0 c"
b1000101 d"
b0 U"
b0 a"
b0 e"
b1000101 P"
b1000101 ["
b1000101 !
b1000101 Y
b1000101 e
b1000101 h
b1000101 k
b1000101 n
b1000101 q
b1000101 t
b1000101 w
b1000101 z
b1000101 }
b1000101 ""
b1000101 %"
b1000101 ("
b1000101 +"
b1000101 ."
b1000101 1"
b1000101 4"
b1000101 7"
b1000101 :"
b1000101 ="
b1000101 @"
b1000101 C"
b1000101 F"
b1000101 H"
b1000101 X"
b1000101 b"
b1000101 i"
b1000101 )#
b1000101 *#
b10101 '#
1H
b110 R#
1,
0V
#11000
b1000101 <"
b1000101 ~"
b1000101 >"
1V
#11100
b0 f
b0 K"
b0 Y"
b0 V"
b0 ]"
b100000 _"
b0 ,#
b0 /#
b0 l"
b0 \"
b11111111111111111111111111111111 e"
b1111111111111111111111111111111111111111111111111111111111111111 U"
b1111111111111111111111111111111111111111111111111111111111111111 a"
b11111111111111111111111111111111 c"
b0 d"
b0 P"
b0 ["
b0 !
b0 Y
b0 e
b0 h
b0 k
b0 n
b0 q
b0 t
b0 w
b0 z
b0 }
b0 ""
b0 %"
b0 ("
b0 +"
b0 ."
b0 1"
b0 4"
b0 7"
b0 :"
b0 ="
b0 @"
b0 C"
b0 F"
b0 H"
b0 X"
b0 b"
b0 i"
b0 )#
b0 *#
b0 '#
b10000010100111001000100 5#
b100 4#
b1001 6#
b110 9#
b101 8#
b10 7#
b0 -
b0 \
b0 +#
0,
0H
#12000
b110100 f
b110100 K"
b110100 Y"
b110100 V"
b110100 ]"
b100000 _"
b110100 ,#
b110100 /#
b10100 l"
b110100 \"
b100000 f"
b0 c"
b110100 d"
b0 U"
b0 a"
b0 e"
b110100 P"
b110100 ["
b110100 !
b110100 Y
b110100 e
b110100 h
b110100 k
b110100 n
b110100 q
b110100 t
b110100 w
b110100 z
b110100 }
b110100 ""
b110100 %"
b110100 ("
b110100 +"
b110100 ."
b110100 1"
b110100 4"
b110100 7"
b110100 :"
b110100 ="
b110100 @"
b110100 C"
b110100 F"
b110100 H"
b110100 X"
b110100 b"
b110100 i"
b110100 )#
b110100 *#
b101 '#
1Q
1G
1S#
b101 T#
0V
#13000
b1101000 f
b1101000 K"
b1101000 Y"
b1101000 ^"
b1101000 V"
b1101000 ]"
b100000 _"
b110100 W"
b110100 Z"
b101010010000 T"
b101010010000 h"
b0 c"
b100000 f"
b1 U"
b1 a"
b1 e"
b110100 ^
b110100 I"
b110100 J"
b110100 N"
b110100 `"
b110100 g"
b110100 j"
1V
#13100
b110100 f
b110100 K"
b110100 Y"
b110100 S"
b110100 m"
b110100 V"
b110100 ]"
b100000 _"
b0 ^"
b0 ,#
b0 /#
b0 T"
b0 h"
b0 l"
b0 \"
b11111111111111111111111111111111 c"
b0 d"
b1111111111111111111111111111111111111111111111111111111111111111 U"
b1111111111111111111111111111111111111111111111111111111111111111 a"
b11111111111111111111111111111111 e"
b0 P"
b0 ["
b0 !
b0 Y
b0 e
b0 h
b0 k
b0 n
b0 q
b0 t
b0 w
b0 z
b0 }
b0 ""
b0 %"
b0 ("
b0 +"
b0 ."
b0 1"
b0 4"
b0 7"
b0 :"
b0 ="
b0 @"
b0 C"
b0 F"
b0 H"
b0 X"
b0 b"
b0 i"
b0 )#
b0 *#
b0 '#
0Q
0G
#14000
b1 S"
b1 m"
b1000 ^"
b1111001 V"
b1111001 ]"
b100000 _"
b1000101 ,#
b1000101 /#
b111000000100 T"
b111000000100 h"
b101 l"
b1000101 \"
b100000 f"
b110100 c"
b1000101 d"
b11010000000000000000000000000000000000 U"
b11010000000000000000000000000000000000 a"
b0 e"
b1000101 P"
b1000101 ["
b1000101 !
b1000101 Y
b1000101 e
b1000101 h
b1000101 k
b1000101 n
b1000101 q
b1000101 t
b1000101 w
b1000101 z
b1000101 }
b1000101 ""
b1000101 %"
b1000101 ("
b1000101 +"
b1000101 ."
b1000101 1"
b1000101 4"
b1000101 7"
b1000101 :"
b1000101 ="
b1000101 @"
b1000101 C"
b1000101 F"
b1000101 H"
b1000101 X"
b1000101 b"
b1000101 i"
b1000101 )#
b1000101 *#
b110 '#
b100 f
b100 K"
b100 Y"
1S
b1001 "
b1001 X
b1001 O"
1I
b110 T#
0V
#15000
b100 %#
b100 ]
b100 L"
b100 M"
1V
#15100
b110100 S"
b110100 m"
b110100 V"
b110100 ]"
b100000 _"
b0 ^"
b0 ,#
b0 /#
b0 T"
b0 h"
b0 l"
b0 \"
b11111111111111111111111111111111 c"
b0 d"
b1111111111111111111111111111111111111111111111111111111111111111 U"
b1111111111111111111111111111111111111111111111111111111111111111 a"
b11111111111111111111111111111111 e"
b0 P"
b0 ["
b0 !
b0 Y
b0 e
b0 h
b0 k
b0 n
b0 q
b0 t
b0 w
b0 z
b0 }
b0 ""
b0 %"
b0 ("
b0 +"
b0 ."
b0 1"
b0 4"
b0 7"
b0 :"
b0 ="
b0 @"
b0 C"
b0 F"
b0 H"
b0 X"
b0 b"
b0 i"
b0 )#
b0 *#
b0 '#
b110100 f
b110100 K"
b110100 Y"
b0 "
b0 X
b0 O"
0S
0I
#16000
b111000 f
b111000 K"
b111000 Y"
b11 S"
b11 m"
b1000 ^"
b111000 V"
b111000 ]"
b100000 _"
b100 ,#
b100 /#
b11010000 T"
b11010000 h"
b100 l"
b100 \"
b100000 f"
b0 c"
b100 d"
b1101 U"
b1101 a"
b1101 e"
b100 P"
b100 ["
b100 !
b100 Y
b100 e
b100 h
b100 k
b100 n
b100 q
b100 t
b100 w
b100 z
b100 }
b100 ""
b100 %"
b100 ("
b100 +"
b100 ."
b100 1"
b100 4"
b100 7"
b100 :"
b100 ="
b100 @"
b100 C"
b100 F"
b100 H"
b100 X"
b100 b"
b100 i"
b100 )#
b100 *#
b10011 '#
1@
b10 R#
1T
0V
#17000
b100 0"
b100 z"
b100 2"
1V
#17100
b110100 f
b110100 K"
b110100 Y"
b110100 S"
b110100 m"
b110100 V"
b110100 ]"
b100000 _"
b0 ^"
b0 ,#
b0 /#
b0 T"
b0 h"
b0 l"
b0 \"
b11111111111111111111111111111111 c"
b0 d"
b1111111111111111111111111111111111111111111111111111111111111111 U"
b1111111111111111111111111111111111111111111111111111111111111111 a"
b11111111111111111111111111111111 e"
b0 P"
b0 ["
b0 !
b0 Y
b0 e
b0 h
b0 k
b0 n
b0 q
b0 t
b0 w
b0 z
b0 }
b0 ""
b0 %"
b0 ("
b0 +"
b0 ."
b0 1"
b0 4"
b0 7"
b0 :"
b0 ="
b0 @"
b0 C"
b0 F"
b0 H"
b0 X"
b0 b"
b0 i"
b0 )#
b0 *#
b0 '#
b10000010100111001000100 2#
b100 1#
b10 3#
0T
0@
#18000
b111000 f
b111000 K"
b111000 Y"
b11 S"
b11 m"
b1000 ^"
b111000 V"
b111000 ]"
b100000 _"
b100 ,#
b100 /#
b11010000 T"
b11010000 h"
b100 l"
b100 \"
b100000 f"
b0 c"
b100 d"
b1101 U"
b1101 a"
b1101 e"
b100 P"
b100 ["
b100 !
b100 Y
b100 e
b100 h
b100 k
b100 n
b100 q
b100 t
b100 w
b100 z
b100 }
b100 ""
b100 %"
b100 ("
b100 +"
b100 ."
b100 1"
b100 4"
b100 7"
b100 :"
b100 ="
b100 @"
b100 C"
b100 F"
b100 H"
b100 X"
b100 b"
b100 i"
b100 )#
b100 *#
b10 '#
1A
b10 T#
0V
